# Grid for circular plate of radius 1 with optimal cicle packing. Areas of each patch are computed via Voronoi diagram
# 750 patches
# x y z nx ny nz area curvature
  -0.0151986132  -0.9659599277   0.0000000000   0.0000000000   0.0000000000   1.0000000000   0.0050000000   0.0000000000
  -0.0829519387  -0.9625115872   0.0000000000   0.0000000000   0.0000000000   1.0000000000   0.0047000000   0.0000000000
   0.1039007993  -0.9604760297   0.0000000000   0.0000000000   0.0000000000   1.0000000000   0.0050000000   0.0000000000
  -0.1628249128  -0.9522592228   0.0000000000   0.0000000000   0.0000000000   1.0000000000   0.0050000000   0.0000000000
   0.1734013393  -0.9503902121   0.0000000000   0.0000000000   0.0000000000   1.0000000000   0.0046000000   0.0000000000
  -0.2292527339  -0.9384842906   0.0000000000   0.0000000000   0.0000000000   1.0000000000   0.0048000000   0.0000000000
   0.2465757493  -0.9340824266   0.0000000000   0.0000000000   0.0000000000   1.0000000000   0.0046000000   0.0000000000
   0.0428615629  -0.9308683315   0.0000000000   0.0000000000   0.0000000000   1.0000000000   0.0055000000   0.0000000000
   0.3139013874  -0.9135747136   0.0000000000   0.0000000000   0.0000000000   1.0000000000   0.0045000000   0.0000000000
  -0.2918697269  -0.9123784224   0.0000000000   0.0000000000   0.0000000000   1.0000000000   0.0048000000   0.0000000000
  -0.1159370391  -0.9032293190   0.0000000000   0.0000000000   0.0000000000   1.0000000000   0.0043000000   0.0000000000
  -0.0447098448  -0.9031668226   0.0000000000   0.0000000000   0.0000000000   1.0000000000   0.0048000000   0.0000000000
   0.1303147719  -0.8979883811   0.0000000000   0.0000000000   0.0000000000   1.0000000000   0.0044000000   0.0000000000
  -0.3580124983  -0.8972940604   0.0000000000   0.0000000000   0.0000000000   1.0000000000   0.0047000000   0.0000000000
   0.3785904255  -0.8888075548   0.0000000000   0.0000000000   0.0000000000   1.0000000000   0.0051000000   0.0000000000
   0.1976886541  -0.8870456740   0.0000000000   0.0000000000   0.0000000000   1.0000000000   0.0041000000   0.0000000000
  -0.2388349940  -0.8700733248   0.0000000000   0.0000000000   0.0000000000   1.0000000000   0.0043000000   0.0000000000
   0.2632721170  -0.8683280694   0.0000000000   0.0000000000   0.0000000000   1.0000000000   0.0041000000   0.0000000000
   0.0166210305  -0.8683076518   0.0000000000   0.0000000000   0.0000000000   1.0000000000   0.0043000000   0.0000000000
  -0.4249066639  -0.8676196786   0.0000000000   0.0000000000   0.0000000000   1.0000000000   0.0045000000   0.0000000000
  -0.1712685391  -0.8639759206   0.0000000000   0.0000000000   0.0000000000   1.0000000000   0.0048000000   0.0000000000
   0.0820359898  -0.8503274604   0.0000000000   0.0000000000   0.0000000000   1.0000000000   0.0044000000   0.0000000000
   0.3269198284  -0.8448467363   0.0000000000   0.0000000000   0.0000000000   1.0000000000   0.0043000000   0.0000000000
  -0.3016330498  -0.8429393514   0.0000000000   0.0000000000   0.0000000000   1.0000000000   0.0047000000   0.0000000000
   0.4771617458  -0.8400156237   0.0000000000   0.0000000000   0.0000000000   1.0000000000   0.0051000000   0.0000000000
  -0.0966385321  -0.8381910856   0.0000000000   0.0000000000   0.0000000000   1.0000000000   0.0045000000   0.0000000000
  -0.4847483070  -0.8356606121   0.0000000000   0.0000000000   0.0000000000   1.0000000000   0.0048000000   0.0000000000
   0.1474509490  -0.8323472690   0.0000000000   0.0000000000   0.0000000000   1.0000000000   0.0041000000   0.0000000000
  -0.3682946383  -0.8302367583   0.0000000000   0.0000000000   0.0000000000   1.0000000000   0.0042000000   0.0000000000
   0.4102528320  -0.8288084198   0.0000000000   0.0000000000   0.0000000000   1.0000000000   0.0050000000   0.0000000000
   0.2143850217  -0.8212913168   0.0000000000   0.0000000000   0.0000000000   1.0000000000   0.0042000000   0.0000000000
  -0.0312235729  -0.8202108942   0.0000000000   0.0000000000   0.0000000000   1.0000000000   0.0043000000   0.0000000000
  -0.2103322735  -0.8085103563   0.0000000000   0.0000000000   0.0000000000   1.0000000000   0.0044000000   0.0000000000
   0.5349402993  -0.8044553785   0.0000000000   0.0000000000   0.0000000000   1.0000000000   0.0044000000   0.0000000000
   0.0341913863  -0.8022307028   0.0000000000   0.0000000000   0.0000000000   1.0000000000   0.0040000000   0.0000000000
  -0.4284780862  -0.7976760312   0.0000000000   0.0000000000   0.0000000000   1.0000000000   0.0046000000   0.0000000000
   0.2777086147  -0.7969494445   0.0000000000   0.0000000000   0.0000000000   1.0000000000   0.0041000000   0.0000000000
  -0.1449173143  -0.7905301649   0.0000000000   0.0000000000   0.0000000000   1.0000000000   0.0042000000   0.0000000000
  -0.5608818705  -0.7865882704   0.0000000000   0.0000000000   0.0000000000   1.0000000000   0.0048000000   0.0000000000
   0.0996063455  -0.7842505113   0.0000000000   0.0000000000   0.0000000000   1.0000000000   0.0040000000   0.0000000000
   0.3431235739  -0.7789692530   0.0000000000   0.0000000000   0.0000000000   1.0000000000   0.0043000000   0.0000000000
  -0.3240260149  -0.7788296270   0.0000000000   0.0000000000   0.0000000000   1.0000000000   0.0042000000   0.0000000000
  -0.0795023550  -0.7725499734   0.0000000000   0.0000000000   0.0000000000   1.0000000000   0.0040000000   0.0000000000
   0.4755278182  -0.7717053972   0.0000000000   0.0000000000   0.0000000000   1.0000000000   0.0047000000   0.0000000000
  -0.4954501921  -0.7686690169   0.0000000000   0.0000000000   0.0000000000   1.0000000000   0.0047000000   0.0000000000
   0.1651806300  -0.7668603593   0.0000000000   0.0000000000   0.0000000000   1.0000000000   0.0041000000   0.0000000000
   0.5900777863  -0.7649299222   0.0000000000   0.0000000000   0.0000000000   1.0000000000   0.0048000000   0.0000000000
   0.4085385331  -0.7609890616   0.0000000000   0.0000000000   0.0000000000   1.0000000000   0.0042000000   0.0000000000
  -0.2586110556  -0.7608494356   0.0000000000   0.0000000000   0.0000000000   1.0000000000   0.0044000000   0.0000000000
  -0.0140873958  -0.7545697820   0.0000000000   0.0000000000   0.0000000000   1.0000000000   0.0040000000   0.0000000000
   0.2304362640  -0.7482901285   0.0000000000   0.0000000000   0.0000000000   1.0000000000   0.0041000000   0.0000000000
  -0.3838584036  -0.7465550887   0.0000000000   0.0000000000   0.0000000000   1.0000000000   0.0050000000   0.0000000000
  -0.6147014863  -0.7452862956   0.0000000000   0.0000000000   0.0000000000   1.0000000000   0.0045000000   0.0000000000
  -0.1931960964  -0.7428692441   0.0000000000   0.0000000000   0.0000000000   1.0000000000   0.0040000000   0.0000000000
   0.0513275634  -0.7365895906   0.0000000000   0.0000000000   0.0000000000   1.0000000000   0.0040000000   0.0000000000
   0.5306653053  -0.7321799409   0.0000000000   0.0000000000   0.0000000000   1.0000000000   0.0047000000   0.0000000000
   0.2958512232  -0.7303099370   0.0000000000   0.0000000000   0.0000000000   1.0000000000   0.0040000000   0.0000000000
  -0.1277811372  -0.7248890527   0.0000000000   0.0000000000   0.0000000000   1.0000000000   0.0040000000   0.0000000000
  -0.5519546243  -0.7193371853   0.0000000000   0.0000000000   0.0000000000   1.0000000000   0.0041000000   0.0000000000
   0.1167425226  -0.7186093991   0.0000000000   0.0000000000   0.0000000000   1.0000000000   0.0040000000   0.0000000000
  -0.3068905612  -0.7131883259   0.0000000000   0.0000000000   0.0000000000   1.0000000000   0.0043000000   0.0000000000
   0.3612661824  -0.7123297456   0.0000000000   0.0000000000   0.0000000000   1.0000000000   0.0040000000   0.0000000000
  -0.0623661780  -0.7069088613   0.0000000000   0.0000000000   0.0000000000   1.0000000000   0.0040000000   0.0000000000
   0.6225305096  -0.7053545504   0.0000000000   0.0000000000   0.0000000000   1.0000000000   0.0055000000   0.0000000000
  -0.4859848041  -0.7014915608   0.0000000000   0.0000000000   0.0000000000   1.0000000000   0.0044000000   0.0000000000
   0.1821574818  -0.7006292077   0.0000000000   0.0000000000   0.0000000000   1.0000000000   0.0040000000   0.0000000000
   0.4270546586  -0.6957237778   0.0000000000   0.0000000000   0.0000000000   1.0000000000   0.0044000000   0.0000000000
  -0.2414748786  -0.6952083234   0.0000000000   0.0000000000   0.0000000000   1.0000000000   0.0040000000   0.0000000000
  -0.6715987566  -0.6944527989   0.0000000000   0.0000000000   0.0000000000   1.0000000000   0.0046000000   0.0000000000
   0.0030487812  -0.6889286698   0.0000000000   0.0000000000   0.0000000000   1.0000000000   0.0040000000   0.0000000000
  -0.4191702441  -0.6885919827   0.0000000000   0.0000000000   0.0000000000   1.0000000000   0.0046000000   0.0000000000
   0.2475724410  -0.6826490163   0.0000000000   0.0000000000   0.0000000000   1.0000000000   0.0040000000   0.0000000000
   0.6856767886  -0.6805563322   0.0000000000   0.0000000000   0.0000000000   1.0000000000   0.0054000000   0.0000000000
  -0.6057742401  -0.6780352105   0.0000000000   0.0000000000   0.0000000000   1.0000000000   0.0041000000   0.0000000000
  -0.1760599194  -0.6772281319   0.0000000000   0.0000000000   0.0000000000   1.0000000000   0.0040000000   0.0000000000
   0.4920961008  -0.6763693627   0.0000000000   0.0000000000   0.0000000000   1.0000000000   0.0044000000   0.0000000000
   0.0684637404  -0.6709484784   0.0000000000   0.0000000000   0.0000000000   1.0000000000   0.0040000000   0.0000000000
  -0.3553162257  -0.6656766517   0.0000000000   0.0000000000   0.0000000000   1.0000000000   0.0043000000   0.0000000000
   0.3129874002  -0.6646688248   0.0000000000   0.0000000000   0.0000000000   1.0000000000   0.0040000000   0.0000000000
   0.5592282734  -0.6600767251   0.0000000000   0.0000000000   0.0000000000   1.0000000000   0.0046000000   0.0000000000
  -0.1106449601  -0.6592479405   0.0000000000   0.0000000000   0.0000000000   1.0000000000   0.0040000000   0.0000000000
  -0.5342735572  -0.6538407423   0.0000000000   0.0000000000   0.0000000000   1.0000000000   0.0041000000   0.0000000000
   0.1338786997  -0.6529682870   0.0000000000   0.0000000000   0.0000000000   1.0000000000   0.0040000000   0.0000000000
  -0.2897536607  -0.6475474026   0.0000000000   0.0000000000   0.0000000000   1.0000000000   0.0040000000   0.0000000000
   0.3784023595  -0.6466886334   0.0000000000   0.0000000000   0.0000000000   1.0000000000   0.0040000000   0.0000000000
  -0.7202083141  -0.6438895733   0.0000000000   0.0000000000   0.0000000000   1.0000000000   0.0044000000   0.0000000000
  -0.0452300009  -0.6412677491   0.0000000000   0.0000000000   0.0000000000   1.0000000000   0.0040000000   0.0000000000
   0.6255626813  -0.6375813248   0.0000000000   0.0000000000   0.0000000000   1.0000000000   0.0043000000   0.0000000000
  -0.4688623613  -0.6358468647   0.0000000000   0.0000000000   0.0000000000   1.0000000000   0.0041000000   0.0000000000
   0.1992936589  -0.6349880955   0.0000000000   0.0000000000   0.0000000000   1.0000000000   0.0040000000   0.0000000000
  -0.2243387015  -0.6295672112   0.0000000000   0.0000000000   0.0000000000   1.0000000000   0.0040000000   0.0000000000
  -0.6539176895  -0.6289563559   0.0000000000   0.0000000000   0.0000000000   1.0000000000   0.0041000000   0.0000000000
   0.4438173187  -0.6287084420   0.0000000000   0.0000000000   0.0000000000   1.0000000000   0.0040000000   0.0000000000
   0.0201849583  -0.6232875576   0.0000000000   0.0000000000   0.0000000000   1.0000000000   0.0040000000   0.0000000000
  -0.4034474021  -0.6178666733   0.0000000000   0.0000000000   0.0000000000   1.0000000000   0.0041000000   0.0000000000
   0.2647086181  -0.6170079041   0.0000000000   0.0000000000   0.0000000000   1.0000000000   0.0040000000   0.0000000000
   0.6962814146  -0.6135492723   0.0000000000   0.0000000000   0.0000000000   1.0000000000   0.0048000000   0.0000000000
  -0.5880931730  -0.6125387676   0.0000000000   0.0000000000   0.0000000000   1.0000000000   0.0043000000   0.0000000000
  -0.1589237423  -0.6115870198   0.0000000000   0.0000000000   0.0000000000   1.0000000000   0.0040000000   0.0000000000
   0.5092322779  -0.6107282505   0.0000000000   0.0000000000   0.0000000000   1.0000000000   0.0040000000   0.0000000000
   0.0855999175  -0.6053073662   0.0000000000   0.0000000000   0.0000000000   1.0000000000   0.0040000000   0.0000000000
  -0.3380324429  -0.5998864819   0.0000000000   0.0000000000   0.0000000000   1.0000000000   0.0040000000   0.0000000000
   0.3301235773  -0.5990277126   0.0000000000   0.0000000000   0.0000000000   1.0000000000   0.0040000000   0.0000000000
   0.7614216444  -0.5945978970   0.0000000000   0.0000000000   0.0000000000   1.0000000000   0.0050000000   0.0000000000
  -0.0935087831  -0.5936068283   0.0000000000   0.0000000000   0.0000000000   1.0000000000   0.0040000000   0.0000000000
   0.5746472371  -0.5927480591   0.0000000000   0.0000000000   0.0000000000   1.0000000000   0.0041000000   0.0000000000
  -0.7640168684  -0.5912595069   0.0000000000   0.0000000000   0.0000000000   1.0000000000   0.0051000000   0.0000000000
  -0.5171511177  -0.5881960454   0.0000000000   0.0000000000   0.0000000000   1.0000000000   0.0041000000   0.0000000000
   0.1510148767  -0.5873271748   0.0000000000   0.0000000000   0.0000000000   1.0000000000   0.0040000000   0.0000000000
  -0.2726174837  -0.5819062904   0.0000000000   0.0000000000   0.0000000000   1.0000000000   0.0040000000   0.0000000000
   0.3955385365  -0.5810475212   0.0000000000   0.0000000000   0.0000000000   1.0000000000   0.0040000000   0.0000000000
  -0.6976683217  -0.5771076688   0.0000000000   0.0000000000   0.0000000000   1.0000000000   0.0043000000   0.0000000000
  -0.0280938239  -0.5756266369   0.0000000000   0.0000000000   0.0000000000   1.0000000000   0.0040000000   0.0000000000
   0.6426988584  -0.5719402126   0.0000000000   0.0000000000   0.0000000000   1.0000000000   0.0042000000   0.0000000000
  -0.4517261843  -0.5702057526   0.0000000000   0.0000000000   0.0000000000   1.0000000000   0.0040000000   0.0000000000
   0.2164298359  -0.5693469833   0.0000000000   0.0000000000   0.0000000000   1.0000000000   0.0040000000   0.0000000000
  -0.2072025244  -0.5639260990   0.0000000000   0.0000000000   0.0000000000   1.0000000000   0.0040000000   0.0000000000
   0.4609534957  -0.5630673298   0.0000000000   0.0000000000   0.0000000000   1.0000000000   0.0040000000   0.0000000000
  -0.6305229708  -0.5596037466   0.0000000000   0.0000000000   0.0000000000   1.0000000000   0.0041000000   0.0000000000
   0.0373211354  -0.5576464455   0.0000000000   0.0000000000   0.0000000000   1.0000000000   0.0040000000   0.0000000000
  -0.3863112250  -0.5522255611   0.0000000000   0.0000000000   0.0000000000   1.0000000000   0.0040000000   0.0000000000
   0.2818447952  -0.5513667919   0.0000000000   0.0000000000   0.0000000000   1.0000000000   0.0040000000   0.0000000000
  -0.1417875652  -0.5459459076   0.0000000000   0.0000000000   0.0000000000   1.0000000000   0.0040000000   0.0000000000
   0.5263684550  -0.5450871383   0.0000000000   0.0000000000   0.0000000000   1.0000000000   0.0040000000   0.0000000000
   0.7162439303  -0.5439878356   0.0000000000   0.0000000000   0.0000000000   1.0000000000   0.0046000000   0.0000000000
  -0.5654199256  -0.5405250232   0.0000000000   0.0000000000   0.0000000000   1.0000000000   0.0041000000   0.0000000000
   0.8012729710  -0.5396954749   0.0000000000   0.0000000000   0.0000000000   1.0000000000   0.0046000000   0.0000000000
   0.1027360946  -0.5396662540   0.0000000000   0.0000000000   0.0000000000   1.0000000000   0.0040000000   0.0000000000
  -0.3208962658  -0.5342453697   0.0000000000   0.0000000000   0.0000000000   1.0000000000   0.0040000000   0.0000000000
   0.3472597544  -0.5333866005   0.0000000000   0.0000000000   0.0000000000   1.0000000000   0.0040000000   0.0000000000
  -0.0763726060  -0.5279657161   0.0000000000   0.0000000000   0.0000000000   1.0000000000   0.0040000000   0.0000000000
   0.5917834142  -0.5271069469   0.0000000000   0.0000000000   0.0000000000   1.0000000000   0.0040000000   0.0000000000
  -0.7601267842  -0.5235301084   0.0000000000   0.0000000000   0.0000000000   1.0000000000   0.0049000000   0.0000000000
  -0.5000049664  -0.5225448318   0.0000000000   0.0000000000   0.0000000000   1.0000000000   0.0040000000   0.0000000000
   0.1681510538  -0.5216860626   0.0000000000   0.0000000000   0.0000000000   1.0000000000   0.0040000000   0.0000000000
  -0.2554813066  -0.5162651783   0.0000000000   0.0000000000   0.0000000000   1.0000000000   0.0040000000   0.0000000000
   0.4126747136  -0.5154064090   0.0000000000   0.0000000000   0.0000000000   1.0000000000   0.0040000000   0.0000000000
  -0.6788017529  -0.5119428259   0.0000000000   0.0000000000   0.0000000000   1.0000000000   0.0043000000   0.0000000000
  -0.0109576468  -0.5099855247   0.0000000000   0.0000000000   0.0000000000   1.0000000000   0.0040000000   0.0000000000
   0.6598350355  -0.5062991004   0.0000000000   0.0000000000   0.0000000000   1.0000000000   0.0044000000   0.0000000000
  -0.4345900072  -0.5045646404   0.0000000000   0.0000000000   0.0000000000   1.0000000000   0.0040000000   0.0000000000
   0.2335660130  -0.5037058711   0.0000000000   0.0000000000   0.0000000000   1.0000000000   0.0040000000   0.0000000000
  -0.8247924733  -0.5030178483   0.0000000000   0.0000000000   0.0000000000   1.0000000000   0.0051000000   0.0000000000
  -0.1900663474  -0.4982849868   0.0000000000   0.0000000000   0.0000000000   1.0000000000   0.0040000000   0.0000000000
   0.4780896728  -0.4974262176   0.0000000000   0.0000000000   0.0000000000   1.0000000000   0.0040000000   0.0000000000
  -0.6136987078  -0.4928641025   0.0000000000   0.0000000000   0.0000000000   1.0000000000   0.0040000000   0.0000000000
   0.0544573124  -0.4920053333   0.0000000000   0.0000000000   0.0000000000   1.0000000000   0.0040000000   0.0000000000
   0.7560952568  -0.4890854135   0.0000000000   0.0000000000   0.0000000000   1.0000000000   0.0050000000   0.0000000000
  -0.3691750480  -0.4865844489   0.0000000000   0.0000000000   0.0000000000   1.0000000000   0.0040000000   0.0000000000
   0.2989809722  -0.4857256797   0.0000000000   0.0000000000   0.0000000000   1.0000000000   0.0040000000   0.0000000000
   0.8371730019  -0.4821316673   0.0000000000   0.0000000000   0.0000000000   1.0000000000   0.0050000000   0.0000000000
  -0.1246513882  -0.4803047954   0.0000000000   0.0000000000   0.0000000000   1.0000000000   0.0040000000   0.0000000000
   0.5435046320  -0.4794460262   0.0000000000   0.0000000000   0.0000000000   1.0000000000   0.0040000000   0.0000000000
  -0.5482837486  -0.4748839111   0.0000000000   0.0000000000   0.0000000000   1.0000000000   0.0040000000   0.0000000000
   0.1198722716  -0.4740251418   0.0000000000   0.0000000000   0.0000000000   1.0000000000   0.0040000000   0.0000000000
  -0.3037600888  -0.4686042575   0.0000000000   0.0000000000   0.0000000000   1.0000000000   0.0040000000   0.0000000000
   0.3643959314  -0.4677454883   0.0000000000   0.0000000000   0.0000000000   1.0000000000   0.0040000000   0.0000000000
  -0.7270805351  -0.4642819051   0.0000000000   0.0000000000   0.0000000000   1.0000000000   0.0042000000   0.0000000000
  -0.0592364290  -0.4623246039   0.0000000000   0.0000000000   0.0000000000   1.0000000000   0.0040000000   0.0000000000
   0.6089195912  -0.4614658347   0.0000000000   0.0000000000   0.0000000000   1.0000000000   0.0040000000   0.0000000000
  -0.4828687893  -0.4569037196   0.0000000000   0.0000000000   0.0000000000   1.0000000000   0.0040000000   0.0000000000
   0.1852872308  -0.4560449504   0.0000000000   0.0000000000   0.0000000000   1.0000000000   0.0040000000   0.0000000000
  -0.2383451295  -0.4506240661   0.0000000000   0.0000000000   0.0000000000   1.0000000000   0.0040000000   0.0000000000
   0.4298108906  -0.4497652968   0.0000000000   0.0000000000   0.0000000000   1.0000000000   0.0040000000   0.0000000000
  -0.6619774899  -0.4452031817   0.0000000000   0.0000000000   0.0000000000   1.0000000000   0.0040000000   0.0000000000
   0.0061785303  -0.4443444125   0.0000000000   0.0000000000   0.0000000000   1.0000000000   0.0040000000   0.0000000000
  -0.8580604880  -0.4438938821   0.0000000000   0.0000000000   0.0000000000   1.0000000000   0.0044000000   0.0000000000
   0.6769856576  -0.4406617609   0.0000000000   0.0000000000   0.0000000000   1.0000000000   0.0045000000   0.0000000000
  -0.7903440522  -0.4397843220   0.0000000000   0.0000000000   0.0000000000   1.0000000000   0.0048000000   0.0000000000
  -0.4174538301  -0.4389235282   0.0000000000   0.0000000000   0.0000000000   1.0000000000   0.0040000000   0.0000000000
   0.2507021901  -0.4380647590   0.0000000000   0.0000000000   0.0000000000   1.0000000000   0.0040000000   0.0000000000
  -0.1729301703  -0.4326438746   0.0000000000   0.0000000000   0.0000000000   1.0000000000   0.0040000000   0.0000000000
   0.4952258499  -0.4317851054   0.0000000000   0.0000000000   0.0000000000   1.0000000000   0.0040000000   0.0000000000
  -0.5965625307  -0.4272229903   0.0000000000   0.0000000000   0.0000000000   1.0000000000   0.0040000000   0.0000000000
   0.0715934895  -0.4263642211   0.0000000000   0.0000000000   0.0000000000   1.0000000000   0.0040000000   0.0000000000
   0.7424280423  -0.4226353464   0.0000000000   0.0000000000   0.0000000000   1.0000000000   0.0042000000   0.0000000000
  -0.3520388709  -0.4209433367   0.0000000000   0.0000000000   0.0000000000   1.0000000000   0.0040000000   0.0000000000
   0.3161171493  -0.4200845675   0.0000000000   0.0000000000   0.0000000000   1.0000000000   0.0040000000   0.0000000000
   0.8102129913  -0.4198776553   0.0000000000   0.0000000000   0.0000000000   1.0000000000   0.0045000000   0.0000000000
  -0.1075152111  -0.4146636832   0.0000000000   0.0000000000   0.0000000000   1.0000000000   0.0040000000   0.0000000000
   0.5606408091  -0.4138049140   0.0000000000   0.0000000000   0.0000000000   1.0000000000   0.0040000000   0.0000000000
  -0.5311475715  -0.4092427989   0.0000000000   0.0000000000   0.0000000000   1.0000000000   0.0040000000   0.0000000000
   0.1370084487  -0.4083840296   0.0000000000   0.0000000000   0.0000000000   1.0000000000   0.0040000000   0.0000000000
   0.8766215483  -0.4060101487   0.0000000000   0.0000000000   0.0000000000   1.0000000000   0.0048000000   0.0000000000
  -0.2866239117  -0.4029631453   0.0000000000   0.0000000000   0.0000000000   1.0000000000   0.0040000000   0.0000000000
   0.3815321085  -0.4021043761   0.0000000000   0.0000000000   0.0000000000   1.0000000000   0.0040000000   0.0000000000
  -0.7119278114  -0.3981514826   0.0000000000   0.0000000000   0.0000000000   1.0000000000   0.0045000000   0.0000000000
  -0.0421002519  -0.3966834918   0.0000000000   0.0000000000   0.0000000000   1.0000000000   0.0040000000   0.0000000000
   0.6260630398  -0.3958266204   0.0000000000   0.0000000000   0.0000000000   1.0000000000   0.0040000000   0.0000000000
  -0.4657326123  -0.3912626074   0.0000000000   0.0000000000   0.0000000000   1.0000000000   0.0040000000   0.0000000000
   0.2024234079  -0.3904038382   0.0000000000   0.0000000000   0.0000000000   1.0000000000   0.0040000000   0.0000000000
  -0.2212089525  -0.3849829539   0.0000000000   0.0000000000   0.0000000000   1.0000000000   0.0040000000   0.0000000000
   0.4469470677  -0.3841241847   0.0000000000   0.0000000000   0.0000000000   1.0000000000   0.0040000000   0.0000000000
  -0.8870971724  -0.3825809542   0.0000000000   0.0000000000   0.0000000000   1.0000000000   0.0049000000   0.0000000000
  -0.6448413129  -0.3795620695   0.0000000000   0.0000000000   0.0000000000   1.0000000000   0.0040000000   0.0000000000
   0.0233147073  -0.3787033003   0.0000000000   0.0000000000   0.0000000000   1.0000000000   0.0040000000   0.0000000000
  -0.8193807365  -0.3784713941   0.0000000000   0.0000000000   0.0000000000   1.0000000000   0.0047000000   0.0000000000
   0.6941073872  -0.3750168788   0.0000000000   0.0000000000   0.0000000000   1.0000000000   0.0040000000   0.0000000000
  -0.4003176531  -0.3732824160   0.0000000000   0.0000000000   0.0000000000   1.0000000000   0.0040000000   0.0000000000
   0.2678383671  -0.3724236468   0.0000000000   0.0000000000   0.0000000000   1.0000000000   0.0040000000   0.0000000000
  -0.1557939933  -0.3670027624   0.0000000000   0.0000000000   0.0000000000   1.0000000000   0.0040000000   0.0000000000
   0.5123620269  -0.3661439932   0.0000000000   0.0000000000   0.0000000000   1.0000000000   0.0040000000   0.0000000000
  -0.5794263537  -0.3615818781   0.0000000000   0.0000000000   0.0000000000   1.0000000000   0.0040000000   0.0000000000
   0.0887296665  -0.3607231089   0.0000000000   0.0000000000   0.0000000000   1.0000000000   0.0040000000   0.0000000000
   0.7595642194  -0.3569942342   0.0000000000   0.0000000000   0.0000000000   1.0000000000   0.0042000000   0.0000000000
  -0.3349026939  -0.3553022246   0.0000000000   0.0000000000   0.0000000000   1.0000000000   0.0040000000   0.0000000000
   0.3332533263  -0.3544434553   0.0000000000   0.0000000000   0.0000000000   1.0000000000   0.0040000000   0.0000000000
   0.8273491684  -0.3542365431   0.0000000000   0.0000000000   0.0000000000   1.0000000000   0.0042000000   0.0000000000
  -0.0903790341  -0.3490225710   0.0000000000   0.0000000000   0.0000000000   1.0000000000   0.0040000000   0.0000000000
   0.5777769861  -0.3481638018   0.0000000000   0.0000000000   0.0000000000   1.0000000000   0.0040000000   0.0000000000
  -0.7592427223  -0.3470735689   0.0000000000   0.0000000000   0.0000000000   1.0000000000   0.0044000000   0.0000000000
  -0.5140113944  -0.3436016867   0.0000000000   0.0000000000   0.0000000000   1.0000000000   0.0040000000   0.0000000000
   0.9029537979  -0.3434880182   0.0000000000   0.0000000000   0.0000000000   1.0000000000   0.0045000000   0.0000000000
   0.1541446258  -0.3427429175   0.0000000000   0.0000000000   0.0000000000   1.0000000000   0.0040000000   0.0000000000
  -0.2694877346  -0.3373220331   0.0000000000   0.0000000000   0.0000000000   1.0000000000   0.0040000000   0.0000000000
   0.3986682856  -0.3364632639   0.0000000000   0.0000000000   0.0000000000   1.0000000000   0.0040000000   0.0000000000
  -0.6931200950  -0.3319011488   0.0000000000   0.0000000000   0.0000000000   1.0000000000   0.0041000000   0.0000000000
  -0.0249640748  -0.3310423796   0.0000000000   0.0000000000   0.0000000000   1.0000000000   0.0040000000   0.0000000000
   0.6431919454  -0.3301836104   0.0000000000   0.0000000000   0.0000000000   1.0000000000   0.0040000000   0.0000000000
  -0.4485964352  -0.3256214952   0.0000000000   0.0000000000   0.0000000000   1.0000000000   0.0040000000   0.0000000000
   0.2195595850  -0.3247627260   0.0000000000   0.0000000000   0.0000000000   1.0000000000   0.0040000000   0.0000000000
  -0.2040727754  -0.3193418417   0.0000000000   0.0000000000   0.0000000000   1.0000000000   0.0040000000   0.0000000000
   0.4640832448  -0.3184830725   0.0000000000   0.0000000000   0.0000000000   1.0000000000   0.0040000000   0.0000000000
  -0.8800633635  -0.3151055534   0.0000000000   0.0000000000   0.0000000000   1.0000000000   0.0052000000   0.0000000000
  -0.6277051358  -0.3139209574   0.0000000000   0.0000000000   0.0000000000   1.0000000000   0.0040000000   0.0000000000
   0.0404508844  -0.3130621881   0.0000000000   0.0000000000   0.0000000000   1.0000000000   0.0040000000   0.0000000000
   0.7112435642  -0.3093757666   0.0000000000   0.0000000000   0.0000000000   1.0000000000   0.0042000000   0.0000000000
  -0.3831814760  -0.3076413038   0.0000000000   0.0000000000   0.0000000000   1.0000000000   0.0040000000   0.0000000000
   0.2849745442  -0.3067825346   0.0000000000   0.0000000000   0.0000000000   1.0000000000   0.0040000000   0.0000000000
  -0.8094835011  -0.3014855405   0.0000000000   0.0000000000   0.0000000000   1.0000000000   0.0044000000   0.0000000000
  -0.1386578162  -0.3013616503   0.0000000000   0.0000000000   0.0000000000   1.0000000000   0.0040000000   0.0000000000
   0.5294982040  -0.3005028810   0.0000000000   0.0000000000   0.0000000000   1.0000000000   0.0040000000   0.0000000000
   0.7894737251  -0.2961023165   0.0000000000   0.0000000000   0.0000000000   1.0000000000   0.0042000000   0.0000000000
  -0.5622901766  -0.2959407659   0.0000000000   0.0000000000   0.0000000000   1.0000000000   0.0040000000   0.0000000000
   0.1058658436  -0.2950819967   0.0000000000   0.0000000000   0.0000000000   1.0000000000   0.0040000000   0.0000000000
   0.8572586741  -0.2933446254   0.0000000000   0.0000000000   0.0000000000   1.0000000000   0.0042000000   0.0000000000
  -0.3177665168  -0.2896611124   0.0000000000   0.0000000000   0.0000000000   1.0000000000   0.0040000000   0.0000000000
   0.3503895034  -0.2888023432   0.0000000000   0.0000000000   0.0000000000   1.0000000000   0.0040000000   0.0000000000
  -0.0732428570  -0.2833814588   0.0000000000   0.0000000000   0.0000000000   1.0000000000   0.0040000000   0.0000000000
   0.5949131632  -0.2825226896   0.0000000000   0.0000000000   0.0000000000   1.0000000000   0.0040000000   0.0000000000
  -0.7421065453  -0.2814324567   0.0000000000   0.0000000000   0.0000000000   1.0000000000   0.0041000000   0.0000000000
   0.9248333360  -0.2792720545   0.0000000000   0.0000000000   0.0000000000   1.0000000000   0.0045000000   0.0000000000
  -0.4968752174  -0.2779605745   0.0000000000   0.0000000000   0.0000000000   1.0000000000   0.0040000000   0.0000000000
   0.1712808028  -0.2771018053   0.0000000000   0.0000000000   0.0000000000   1.0000000000   0.0040000000   0.0000000000
  -0.2523515576  -0.2716809209   0.0000000000   0.0000000000   0.0000000000   1.0000000000   0.0040000000   0.0000000000
   0.4158044626  -0.2708221517   0.0000000000   0.0000000000   0.0000000000   1.0000000000   0.0040000000   0.0000000000
  -0.9283270553  -0.2674293515   0.0000000000   0.0000000000   0.0000000000   1.0000000000   0.0055000000   0.0000000000
  -0.6759839180  -0.2662600366   0.0000000000   0.0000000000   0.0000000000   1.0000000000   0.0040000000   0.0000000000
  -0.0078278978  -0.2654012674   0.0000000000   0.0000000000   0.0000000000   1.0000000000   0.0040000000   0.0000000000
   0.6603281224  -0.2645424982   0.0000000000   0.0000000000   0.0000000000   1.0000000000   0.0042000000   0.0000000000
  -0.4314602582  -0.2599803831   0.0000000000   0.0000000000   0.0000000000   1.0000000000   0.0040000000   0.0000000000
   0.2366957620  -0.2591216138   0.0000000000   0.0000000000   0.0000000000   1.0000000000   0.0040000000   0.0000000000
  -0.1869365984  -0.2537007295   0.0000000000   0.0000000000   0.0000000000   1.0000000000   0.0040000000   0.0000000000
   0.4812194218  -0.2528419603   0.0000000000   0.0000000000   0.0000000000   1.0000000000   0.0040000000   0.0000000000
  -0.8558002866  -0.2517517274   0.0000000000   0.0000000000   0.0000000000   1.0000000000   0.0041000000   0.0000000000
   0.7411530699  -0.2484838489   0.0000000000   0.0000000000   0.0000000000   1.0000000000   0.0043000000   0.0000000000
  -0.6105689587  -0.2482798452   0.0000000000   0.0000000000   0.0000000000   1.0000000000   0.0040000000   0.0000000000
   0.0575870614  -0.2474210760   0.0000000000   0.0000000000   0.0000000000   1.0000000000   0.0040000000   0.0000000000
  -0.3660452989  -0.2420001916   0.0000000000   0.0000000000   0.0000000000   1.0000000000   0.0040000000   0.0000000000
   0.3021107212  -0.2411414224   0.0000000000   0.0000000000   0.0000000000   1.0000000000   0.0040000000   0.0000000000
  -0.1215216391  -0.2357205381   0.0000000000   0.0000000000   0.0000000000   1.0000000000   0.0040000000   0.0000000000
   0.5466343810  -0.2348617689   0.0000000000   0.0000000000   0.0000000000   1.0000000000   0.0040000000   0.0000000000
  -0.7903853274  -0.2337715359   0.0000000000   0.0000000000   0.0000000000   1.0000000000   0.0040000000   0.0000000000
   0.8113348693  -0.2318800887   0.0000000000   0.0000000000   0.0000000000   1.0000000000   0.0043000000   0.0000000000
  -0.5451539995  -0.2302996537   0.0000000000   0.0000000000   0.0000000000   1.0000000000   0.0040000000   0.0000000000
   0.1230020207  -0.2294408845   0.0000000000   0.0000000000   0.0000000000   1.0000000000   0.0040000000   0.0000000000
   0.8791382122  -0.2291286618   0.0000000000   0.0000000000   0.0000000000   1.0000000000   0.0042000000   0.0000000000
  -0.3006303397  -0.2240200002   0.0000000000   0.0000000000   0.0000000000   1.0000000000   0.0040000000   0.0000000000
   0.3675256805  -0.2231612310   0.0000000000   0.0000000000   0.0000000000   1.0000000000   0.0040000000   0.0000000000
  -0.0561066799  -0.2177403466   0.0000000000   0.0000000000   0.0000000000   1.0000000000   0.0040000000   0.0000000000
   0.6120493403  -0.2168815774   0.0000000000   0.0000000000   0.0000000000   1.0000000000   0.0042000000   0.0000000000
  -0.7249703682  -0.2157913445   0.0000000000   0.0000000000   0.0000000000   1.0000000000   0.0040000000   0.0000000000
  -0.4797390403  -0.2123194623   0.0000000000   0.0000000000   0.0000000000   1.0000000000   0.0040000000   0.0000000000
   0.1884169799  -0.2114606931   0.0000000000   0.0000000000   0.0000000000   1.0000000000   0.0040000000   0.0000000000
   0.9435355434  -0.2074529064   0.0000000000   0.0000000000   0.0000000000   1.0000000000   0.0045000000   0.0000000000
  -0.2352153805  -0.2060398088   0.0000000000   0.0000000000   0.0000000000   1.0000000000   0.0040000000   0.0000000000
   0.4329406397  -0.2051810395   0.0000000000   0.0000000000   0.0000000000   1.0000000000   0.0040000000   0.0000000000
  -0.9040855322  -0.2040672751   0.0000000000   0.0000000000   0.0000000000   1.0000000000   0.0045000000   0.0000000000
   0.6888501840  -0.2028732692   0.0000000000   0.0000000000   0.0000000000   1.0000000000   0.0045000000   0.0000000000
  -0.6588477409  -0.2006189244   0.0000000000   0.0000000000   0.0000000000   1.0000000000   0.0040000000   0.0000000000
   0.0093082793  -0.1997601552   0.0000000000   0.0000000000   0.0000000000   1.0000000000   0.0040000000   0.0000000000
  -0.4143240811  -0.1943392709   0.0000000000   0.0000000000   0.0000000000   1.0000000000   0.0040000000   0.0000000000
   0.2538319391  -0.1934805017   0.0000000000   0.0000000000   0.0000000000   1.0000000000   0.0040000000   0.0000000000
  -0.1698004213  -0.1880596173   0.0000000000   0.0000000000   0.0000000000   1.0000000000   0.0040000000   0.0000000000
   0.4983555989  -0.1872008481   0.0000000000   0.0000000000   0.0000000000   1.0000000000   0.0040000000   0.0000000000
  -0.8386641096  -0.1861106152   0.0000000000   0.0000000000   0.0000000000   1.0000000000   0.0040000000   0.0000000000
   0.7593091734  -0.1831174961   0.0000000000   0.0000000000   0.0000000000   1.0000000000   0.0044000000   0.0000000000
  -0.5934327817  -0.1826387330   0.0000000000   0.0000000000   0.0000000000   1.0000000000   0.0040000000   0.0000000000
   0.0747232385  -0.1817799638   0.0000000000   0.0000000000   0.0000000000   1.0000000000   0.0040000000   0.0000000000
  -0.3489091219  -0.1763590794   0.0000000000   0.0000000000   0.0000000000   1.0000000000   0.0040000000   0.0000000000
   0.3192468983  -0.1755003102   0.0000000000   0.0000000000   0.0000000000   1.0000000000   0.0040000000   0.0000000000
  -0.1043854621  -0.1700794259   0.0000000000   0.0000000000   0.0000000000   1.0000000000   0.0040000000   0.0000000000
   0.5637705581  -0.1692206567   0.0000000000   0.0000000000   0.0000000000   1.0000000000   0.0040000000   0.0000000000
  -0.7732491504  -0.1681304237   0.0000000000   0.0000000000   0.0000000000   1.0000000000   0.0040000000   0.0000000000
   0.8247241326  -0.1651373047   0.0000000000   0.0000000000   0.0000000000   1.0000000000   0.0045000000   0.0000000000
  -0.5280178225  -0.1646585416   0.0000000000   0.0000000000   0.0000000000   1.0000000000   0.0040000000   0.0000000000
   0.1401381977  -0.1637997723   0.0000000000   0.0000000000   0.0000000000   1.0000000000   0.0040000000   0.0000000000
   0.8925184423  -0.1626202141   0.0000000000   0.0000000000   0.0000000000   1.0000000000   0.0043000000   0.0000000000
  -0.2834941627  -0.1583788880   0.0000000000   0.0000000000   0.0000000000   1.0000000000   0.0040000000   0.0000000000
   0.3846618575  -0.1575201188   0.0000000000   0.0000000000   0.0000000000   1.0000000000   0.0040000000   0.0000000000
  -0.9531937935  -0.1572614758   0.0000000000   0.0000000000   0.0000000000   1.0000000000   0.0050000000   0.0000000000
  -0.0389705029  -0.1520992345   0.0000000000   0.0000000000   0.0000000000   1.0000000000   0.0040000000   0.0000000000
   0.6292482700  -0.1512568794   0.0000000000   0.0000000000   0.0000000000   1.0000000000   0.0042000000   0.0000000000
  -0.7078341912  -0.1501502323   0.0000000000   0.0000000000   0.0000000000   1.0000000000   0.0040000000   0.0000000000
  -0.4626028633  -0.1466783501   0.0000000000   0.0000000000   0.0000000000   1.0000000000   0.0040000000   0.0000000000
   0.2055531569  -0.1458195809   0.0000000000   0.0000000000   0.0000000000   1.0000000000   0.0040000000   0.0000000000
  -0.2180792035  -0.1403986966   0.0000000000   0.0000000000   0.0000000000   1.0000000000   0.0040000000   0.0000000000
   0.4500768167  -0.1395399274   0.0000000000   0.0000000000   0.0000000000   1.0000000000   0.0040000000   0.0000000000
   0.9560519621  -0.1388316445   0.0000000000   0.0000000000   0.0000000000   1.0000000000   0.0045000000   0.0000000000
  -0.8881046516  -0.1381353737   0.0000000000   0.0000000000   0.0000000000   1.0000000000   0.0044000000   0.0000000000
   0.6951901518  -0.1353172311   0.0000000000   0.0000000000   0.0000000000   1.0000000000   0.0043000000   0.0000000000
  -0.6417115638  -0.1349778122   0.0000000000   0.0000000000   0.0000000000   1.0000000000   0.0040000000   0.0000000000
   0.0264444563  -0.1341190430   0.0000000000   0.0000000000   0.0000000000   1.0000000000   0.0040000000   0.0000000000
  -0.3971879040  -0.1286981587   0.0000000000   0.0000000000   0.0000000000   1.0000000000   0.0040000000   0.0000000000
   0.2709681161  -0.1278393895   0.0000000000   0.0000000000   0.0000000000   1.0000000000   0.0040000000   0.0000000000
  -0.1526642442  -0.1224185051   0.0000000000   0.0000000000   0.0000000000   1.0000000000   0.0040000000   0.0000000000
   0.5154917759  -0.1215597359   0.0000000000   0.0000000000   0.0000000000   1.0000000000   0.0040000000   0.0000000000
  -0.8215279325  -0.1204695030   0.0000000000   0.0000000000   0.0000000000   1.0000000000   0.0040000000   0.0000000000
  -0.5762966046  -0.1169976208   0.0000000000   0.0000000000   0.0000000000   1.0000000000   0.0040000000   0.0000000000
   0.0918594156  -0.1161388516   0.0000000000   0.0000000000   0.0000000000   1.0000000000   0.0040000000   0.0000000000
   0.7600154547  -0.1152801514   0.0000000000   0.0000000000   0.0000000000   1.0000000000   0.0042000000   0.0000000000
  -0.3317729448  -0.1107179673   0.0000000000   0.0000000000   0.0000000000   1.0000000000   0.0040000000   0.0000000000
   0.3363830754  -0.1098591980   0.0000000000   0.0000000000   0.0000000000   1.0000000000   0.0040000000   0.0000000000
  -0.0872492850  -0.1044383137   0.0000000000   0.0000000000   0.0000000000   1.0000000000   0.0040000000   0.0000000000
   0.5809067352  -0.1035795445   0.0000000000   0.0000000000   0.0000000000   1.0000000000   0.0040000000   0.0000000000
  -0.7561129733  -0.1024893116   0.0000000000   0.0000000000   0.0000000000   1.0000000000   0.0040000000   0.0000000000
  -0.5108816454  -0.0990174294   0.0000000000   0.0000000000   0.0000000000   1.0000000000   0.0040000000   0.0000000000
   0.1572743748  -0.0981586602   0.0000000000   0.0000000000   0.0000000000   1.0000000000   0.0040000000   0.0000000000
   0.8254304139  -0.0972999599   0.0000000000   0.0000000000   0.0000000000   1.0000000000   0.0043000000   0.0000000000
   0.8932247236  -0.0947828694   0.0000000000   0.0000000000   0.0000000000   1.0000000000   0.0045000000   0.0000000000
  -0.2663579856  -0.0927377758   0.0000000000   0.0000000000   0.0000000000   1.0000000000   0.0040000000   0.0000000000
   0.4017980346  -0.0918790066   0.0000000000   0.0000000000   0.0000000000   1.0000000000   0.0040000000   0.0000000000
  -0.9618801309  -0.0899788502   0.0000000000   0.0000000000   0.0000000000   1.0000000000   0.0055000000   0.0000000000
  -0.0218343258  -0.0864581223   0.0000000000   0.0000000000   0.0000000000   1.0000000000   0.0040000000   0.0000000000
   0.6463217134  -0.0855994221   0.0000000000   0.0000000000   0.0000000000   1.0000000000   0.0040000000   0.0000000000
  -0.6906980141  -0.0845091201   0.0000000000   0.0000000000   0.0000000000   1.0000000000   0.0040000000   0.0000000000
  -0.4454666862  -0.0810372379   0.0000000000   0.0000000000   0.0000000000   1.0000000000   0.0040000000   0.0000000000
   0.2226893340  -0.0801784687   0.0000000000   0.0000000000   0.0000000000   1.0000000000   0.0040000000   0.0000000000
  -0.2009430264  -0.0747575844   0.0000000000   0.0000000000   0.0000000000   1.0000000000   0.0040000000   0.0000000000
   0.4672129938  -0.0738988152   0.0000000000   0.0000000000   0.0000000000   1.0000000000   0.0040000000   0.0000000000
  -0.8698067147  -0.0728085822   0.0000000000   0.0000000000   0.0000000000   1.0000000000   0.0043000000   0.0000000000
   0.9634378519  -0.0713938746   0.0000000000   0.0000000000   0.0000000000   1.0000000000   0.0048000000   0.0000000000
  -0.6245753868  -0.0693367001   0.0000000000   0.0000000000   0.0000000000   1.0000000000   0.0040000000   0.0000000000
   0.0435806334  -0.0684779308   0.0000000000   0.0000000000   0.0000000000   1.0000000000   0.0040000000   0.0000000000
   0.7117366726  -0.0676192306   0.0000000000   0.0000000000   0.0000000000   1.0000000000   0.0040000000   0.0000000000
  -0.3800517270  -0.0630570465   0.0000000000   0.0000000000   0.0000000000   1.0000000000   0.0040000000   0.0000000000
   0.2881042932  -0.0621982773   0.0000000000   0.0000000000   0.0000000000   1.0000000000   0.0040000000   0.0000000000
  -0.1355280672  -0.0567773930   0.0000000000   0.0000000000   0.0000000000   1.0000000000   0.0040000000   0.0000000000
   0.5326279530  -0.0559186237   0.0000000000   0.0000000000   0.0000000000   1.0000000000   0.0040000000   0.0000000000
  -0.8043917555  -0.0548283908   0.0000000000   0.0000000000   0.0000000000   1.0000000000   0.0040000000   0.0000000000
  -0.5591604276  -0.0513565086   0.0000000000   0.0000000000   0.0000000000   1.0000000000   0.0040000000   0.0000000000
   0.1089955926  -0.0504977394   0.0000000000   0.0000000000   0.0000000000   1.0000000000   0.0040000000   0.0000000000
   0.7771516318  -0.0496390392   0.0000000000   0.0000000000   0.0000000000   1.0000000000   0.0040000000   0.0000000000
  -0.3146367678  -0.0450768551   0.0000000000   0.0000000000   0.0000000000   1.0000000000   0.0040000000   0.0000000000
   0.3535192524  -0.0442180858   0.0000000000   0.0000000000   0.0000000000   1.0000000000   0.0040000000   0.0000000000
  -0.0701131080  -0.0387972015   0.0000000000   0.0000000000   0.0000000000   1.0000000000   0.0040000000   0.0000000000
   0.5980429122  -0.0379384323   0.0000000000   0.0000000000   0.0000000000   1.0000000000   0.0040000000   0.0000000000
  -0.7389767962  -0.0368481994   0.0000000000   0.0000000000   0.0000000000   1.0000000000   0.0040000000   0.0000000000
  -0.4937454684  -0.0333763172   0.0000000000   0.0000000000   0.0000000000   1.0000000000   0.0040000000   0.0000000000
  -0.9248418558  -0.0331407437   0.0000000000   0.0000000000   0.0000000000   1.0000000000   0.0048000000   0.0000000000
   0.1744105518  -0.0325175480   0.0000000000   0.0000000000   0.0000000000   1.0000000000   0.0040000000   0.0000000000
   0.8425665910  -0.0316588478   0.0000000000   0.0000000000   0.0000000000   1.0000000000   0.0042000000   0.0000000000
   0.9103609007  -0.0291417572   0.0000000000   0.0000000000   0.0000000000   1.0000000000   0.0043000000   0.0000000000
  -0.2492218085  -0.0270966636   0.0000000000   0.0000000000   0.0000000000   1.0000000000   0.0040000000   0.0000000000
   0.4189342116  -0.0262378944   0.0000000000   0.0000000000   0.0000000000   1.0000000000   0.0040000000   0.0000000000
  -0.0046981487  -0.0208170101   0.0000000000   0.0000000000   0.0000000000   1.0000000000   0.0040000000   0.0000000000
   0.6634578904  -0.0199583099   0.0000000000   0.0000000000   0.0000000000   1.0000000000   0.0040000000   0.0000000000
  -0.6735618370  -0.0188680079   0.0000000000   0.0000000000   0.0000000000   1.0000000000   0.0040000000   0.0000000000
  -0.4283305091  -0.0153961258   0.0000000000   0.0000000000   0.0000000000   1.0000000000   0.0040000000   0.0000000000
   0.2398255111  -0.0145373565   0.0000000000   0.0000000000   0.0000000000   1.0000000000   0.0040000000   0.0000000000
  -0.1838068493  -0.0091164722   0.0000000000   0.0000000000   0.0000000000   1.0000000000   0.0040000000   0.0000000000
   0.4843491709  -0.0082577030   0.0000000000   0.0000000000   0.0000000000   1.0000000000   0.0040000000   0.0000000000
  -0.8526705376  -0.0071674701   0.0000000000   0.0000000000   0.0000000000   1.0000000000   0.0042000000   0.0000000000
  -0.6074392097  -0.0036955879   0.0000000000   0.0000000000   0.0000000000   1.0000000000   0.0040000000   0.0000000000
   0.0607168105  -0.0028368186   0.0000000000   0.0000000000   0.0000000000   1.0000000000   0.0040000000   0.0000000000
   0.7288728496  -0.0019781184   0.0000000000   0.0000000000   0.0000000000   1.0000000000   0.0040000000   0.0000000000
  -0.3629155499   0.0025840657   0.0000000000   0.0000000000   0.0000000000   1.0000000000   0.0040000000   0.0000000000
   0.3052404703   0.0034428349   0.0000000000   0.0000000000   0.0000000000   1.0000000000   0.0040000000   0.0000000000
  -0.1183918901   0.0088637192   0.0000000000   0.0000000000   0.0000000000   1.0000000000   0.0040000000   0.0000000000
   0.9660314994   0.0096292192   0.0000000000   0.0000000000   0.0000000000   1.0000000000   0.0052000000   0.0000000000
   0.5497641301   0.0097224885   0.0000000000   0.0000000000   0.0000000000   1.0000000000   0.0040000000   0.0000000000
  -0.7872555784   0.0108127214   0.0000000000   0.0000000000   0.0000000000   1.0000000000   0.0040000000   0.0000000000
  -0.5420242505   0.0142846036   0.0000000000   0.0000000000   0.0000000000   1.0000000000   0.0040000000   0.0000000000
   0.1261317697   0.0151433728   0.0000000000   0.0000000000   0.0000000000   1.0000000000   0.0040000000   0.0000000000
   0.7942878088   0.0160020730   0.0000000000   0.0000000000   0.0000000000   1.0000000000   0.0042000000   0.0000000000
  -0.2975005907   0.0205642571   0.0000000000   0.0000000000   0.0000000000   1.0000000000   0.0040000000   0.0000000000
  -0.9658533779   0.0209005297   0.0000000000   0.0000000000   0.0000000000   1.0000000000   0.0050000000   0.0000000000
   0.3706554295   0.0214230263   0.0000000000   0.0000000000   0.0000000000   1.0000000000   0.0040000000   0.0000000000
  -0.0529769309   0.0268439107   0.0000000000   0.0000000000   0.0000000000   1.0000000000   0.0040000000   0.0000000000
   0.6151790893   0.0277026799   0.0000000000   0.0000000000   0.0000000000   1.0000000000   0.0040000000   0.0000000000
  -0.7218406192   0.0287929128   0.0000000000   0.0000000000   0.0000000000   1.0000000000   0.0040000000   0.0000000000
   0.8703774431   0.0308285024   0.0000000000   0.0000000000   0.0000000000   1.0000000000   0.0048000000   0.0000000000
  -0.4766092913   0.0322647950   0.0000000000   0.0000000000   0.0000000000   1.0000000000   0.0040000000   0.0000000000
   0.1915467289   0.0331235642   0.0000000000   0.0000000000   0.0000000000   1.0000000000   0.0040000000   0.0000000000
  -0.2320856315   0.0385444485   0.0000000000   0.0000000000   0.0000000000   1.0000000000   0.0040000000   0.0000000000
   0.4360703887   0.0394032178   0.0000000000   0.0000000000   0.0000000000   1.0000000000   0.0040000000   0.0000000000
  -0.9009140200   0.0405291816   0.0000000000   0.0000000000   0.0000000000   1.0000000000   0.0043000000   0.0000000000
   0.0124380283   0.0448241021   0.0000000000   0.0000000000   0.0000000000   1.0000000000   0.0040000000   0.0000000000
   0.6805940675   0.0456828023   0.0000000000   0.0000000000   0.0000000000   1.0000000000   0.0040000000   0.0000000000
  -0.6565643333   0.0472702428   0.0000000000   0.0000000000   0.0000000000   1.0000000000   0.0041000000   0.0000000000
  -0.4111943321   0.0502449864   0.0000000000   0.0000000000   0.0000000000   1.0000000000   0.0040000000   0.0000000000
   0.2569616881   0.0511037557   0.0000000000   0.0000000000   0.0000000000   1.0000000000   0.0040000000   0.0000000000
  -0.1666706723   0.0565246400   0.0000000000   0.0000000000   0.0000000000   1.0000000000   0.0040000000   0.0000000000
   0.5014853479   0.0573834092   0.0000000000   0.0000000000   0.0000000000   1.0000000000   0.0040000000   0.0000000000
  -0.8357817475   0.0595078867   0.0000000000   0.0000000000   0.0000000000   1.0000000000   0.0042000000   0.0000000000
  -0.5903312298   0.0619528919   0.0000000000   0.0000000000   0.0000000000   1.0000000000   0.0040000000   0.0000000000
   0.0778529875   0.0628042935   0.0000000000   0.0000000000   0.0000000000   1.0000000000   0.0040000000   0.0000000000
   0.7460090267   0.0636629937   0.0000000000   0.0000000000   0.0000000000   1.0000000000   0.0040000000   0.0000000000
  -0.3457793729   0.0682251779   0.0000000000   0.0000000000   0.0000000000   1.0000000000   0.0040000000   0.0000000000
   0.3223766473   0.0690839471   0.0000000000   0.0000000000   0.0000000000   1.0000000000   0.0040000000   0.0000000000
   0.9391027637   0.0718967659   0.0000000000   0.0000000000   0.0000000000   1.0000000000   0.0055000000   0.0000000000
  -0.1012557131   0.0745048314   0.0000000000   0.0000000000   0.0000000000   1.0000000000   0.0040000000   0.0000000000
   0.5669003071   0.0753636006   0.0000000000   0.0000000000   0.0000000000   1.0000000000   0.0040000000   0.0000000000
  -0.7700970979   0.0764764156   0.0000000000   0.0000000000   0.0000000000   1.0000000000   0.0042000000   0.0000000000
  -0.5248880734   0.0799257157   0.0000000000   0.0000000000   0.0000000000   1.0000000000   0.0040000000   0.0000000000
   0.1432679467   0.0807844850   0.0000000000   0.0000000000   0.0000000000   1.0000000000   0.0040000000   0.0000000000
   0.8114239859   0.0816431852   0.0000000000   0.0000000000   0.0000000000   1.0000000000   0.0042000000   0.0000000000
  -0.2803644136   0.0862053693   0.0000000000   0.0000000000   0.0000000000   1.0000000000   0.0040000000   0.0000000000
   0.3877916065   0.0870641385   0.0000000000   0.0000000000   0.0000000000   1.0000000000   0.0040000000   0.0000000000
  -0.9620051413   0.0886323187   0.0000000000   0.0000000000   0.0000000000   1.0000000000   0.0045000000   0.0000000000
  -0.0358407538   0.0924850229   0.0000000000   0.0000000000   0.0000000000   1.0000000000   0.0040000000   0.0000000000
   0.6323152663   0.0933437921   0.0000000000   0.0000000000   0.0000000000   1.0000000000   0.0040000000   0.0000000000
  -0.7048300550   0.0949863395   0.0000000000   0.0000000000   0.0000000000   1.0000000000   0.0042000000   0.0000000000
  -0.4594731142   0.0979059072   0.0000000000   0.0000000000   0.0000000000   1.0000000000   0.0040000000   0.0000000000
   0.2086829060   0.0987646764   0.0000000000   0.0000000000   0.0000000000   1.0000000000   0.0040000000   0.0000000000
   0.8769707542   0.0991367652   0.0000000000   0.0000000000   0.0000000000   1.0000000000   0.0043000000   0.0000000000
  -0.2149494544   0.1041855607   0.0000000000   0.0000000000   0.0000000000   1.0000000000   0.0040000000   0.0000000000
   0.4532065658   0.1050443300   0.0000000000   0.0000000000   0.0000000000   1.0000000000   0.0040000000   0.0000000000
  -0.8970657834   0.1082609706   0.0000000000   0.0000000000   0.0000000000   1.0000000000   0.0043000000   0.0000000000
   0.0295742054   0.1104652143   0.0000000000   0.0000000000   0.0000000000   1.0000000000   0.0040000000   0.0000000000
   0.6977302445   0.1113239145   0.0000000000   0.0000000000   0.0000000000   1.0000000000   0.0040000000   0.0000000000
  -0.6394084416   0.1129423044   0.0000000000   0.0000000000   0.0000000000   1.0000000000   0.0042000000   0.0000000000
  -0.3940581550   0.1158860986   0.0000000000   0.0000000000   0.0000000000   1.0000000000   0.0040000000   0.0000000000
   0.2740978652   0.1167448678   0.0000000000   0.0000000000   0.0000000000   1.0000000000   0.0040000000   0.0000000000
  -0.1495344952   0.1221657522   0.0000000000   0.0000000000   0.0000000000   1.0000000000   0.0040000000   0.0000000000
   0.5186215250   0.1230245214   0.0000000000   0.0000000000   0.0000000000   1.0000000000   0.0040000000   0.0000000000
  -0.8319335109   0.1272396757   0.0000000000   0.0000000000   0.0000000000   1.0000000000   0.0043000000   0.0000000000
  -0.5731668556   0.1275866365   0.0000000000   0.0000000000   0.0000000000   1.0000000000   0.0042000000   0.0000000000
   0.0949891646   0.1284454057   0.0000000000   0.0000000000   0.0000000000   1.0000000000   0.0040000000   0.0000000000
   0.7631452037   0.1293041059   0.0000000000   0.0000000000   0.0000000000   1.0000000000   0.0040000000   0.0000000000
  -0.3286431958   0.1338662901   0.0000000000   0.0000000000   0.0000000000   1.0000000000   0.0040000000   0.0000000000
   0.3395128244   0.1347250593   0.0000000000   0.0000000000   0.0000000000   1.0000000000   0.0040000000   0.0000000000
   0.9562389408   0.1375378781   0.0000000000   0.0000000000   0.0000000000   1.0000000000   0.0050000000   0.0000000000
  -0.0841195360   0.1401459436   0.0000000000   0.0000000000   0.0000000000   1.0000000000   0.0040000000   0.0000000000
   0.5840364842   0.1410047128   0.0000000000   0.0000000000   0.0000000000   1.0000000000   0.0040000000   0.0000000000
  -0.7662488612   0.1442082047   0.0000000000   0.0000000000   0.0000000000   1.0000000000   0.0043000000   0.0000000000
  -0.5077518964   0.1455668279   0.0000000000   0.0000000000   0.0000000000   1.0000000000   0.0040000000   0.0000000000
   0.1604041238   0.1464255972   0.0000000000   0.0000000000   0.0000000000   1.0000000000   0.0040000000   0.0000000000
   0.8285601630   0.1472842974   0.0000000000   0.0000000000   0.0000000000   1.0000000000   0.0042000000   0.0000000000
  -0.2632282366   0.1518464815   0.0000000000   0.0000000000   0.0000000000   1.0000000000   0.0040000000   0.0000000000
   0.4049277836   0.1527052507   0.0000000000   0.0000000000   0.0000000000   1.0000000000   0.0040000000   0.0000000000
  -0.9534129948   0.1559270376   0.0000000000   0.0000000000   0.0000000000   1.0000000000   0.0044000000   0.0000000000
  -0.0187045768   0.1581261350   0.0000000000   0.0000000000   0.0000000000   1.0000000000   0.0040000000   0.0000000000
   0.6494513571   0.1589852181   0.0000000000   0.0000000000   0.0000000000   1.0000000000   0.0040000000   0.0000000000
  -0.7009818183   0.1627181286   0.0000000000   0.0000000000   0.0000000000   1.0000000000   0.0043000000   0.0000000000
  -0.4423369372   0.1635470194   0.0000000000   0.0000000000   0.0000000000   1.0000000000   0.0040000000   0.0000000000
   0.2258190830   0.1644057886   0.0000000000   0.0000000000   0.0000000000   1.0000000000   0.0040000000   0.0000000000
   0.8941069312   0.1647778774   0.0000000000   0.0000000000   0.0000000000   1.0000000000   0.0043000000   0.0000000000
  -0.1978132774   0.1698266729   0.0000000000   0.0000000000   0.0000000000   1.0000000000   0.0040000000   0.0000000000
   0.4703427428   0.1706854421   0.0000000000   0.0000000000   0.0000000000   1.0000000000   0.0040000000   0.0000000000
  -0.8884736369   0.1755556895   0.0000000000   0.0000000000   0.0000000000   1.0000000000   0.0041000000   0.0000000000
   0.0467103824   0.1761063265   0.0000000000   0.0000000000   0.0000000000   1.0000000000   0.0040000000   0.0000000000
   0.7148664216   0.1769650267   0.0000000000   0.0000000000   0.0000000000   1.0000000000   0.0040000000   0.0000000000
  -0.6355602049   0.1806740935   0.0000000000   0.0000000000   0.0000000000   1.0000000000   0.0044000000   0.0000000000
  -0.3769219780   0.1815272108   0.0000000000   0.0000000000   0.0000000000   1.0000000000   0.0040000000   0.0000000000
   0.2912340422   0.1823859800   0.0000000000   0.0000000000   0.0000000000   1.0000000000   0.0040000000   0.0000000000
  -0.1323983182   0.1878068644   0.0000000000   0.0000000000   0.0000000000   1.0000000000   0.0040000000   0.0000000000
   0.5357577020   0.1886656336   0.0000000000   0.0000000000   0.0000000000   1.0000000000   0.0040000000   0.0000000000
  -0.5560306785   0.1932277487   0.0000000000   0.0000000000   0.0000000000   1.0000000000   0.0042000000   0.0000000000
   0.1121253417   0.1940865179   0.0000000000   0.0000000000   0.0000000000   1.0000000000   0.0040000000   0.0000000000
  -0.8228101232   0.1944644329   0.0000000000   0.0000000000   0.0000000000   1.0000000000   0.0042000000   0.0000000000
   0.7802813808   0.1949452181   0.0000000000   0.0000000000   0.0000000000   1.0000000000   0.0042000000   0.0000000000
  -0.3115070187   0.1995074022   0.0000000000   0.0000000000   0.0000000000   1.0000000000   0.0040000000   0.0000000000
   0.3566490015   0.2003661715   0.0000000000   0.0000000000   0.0000000000   1.0000000000   0.0040000000   0.0000000000
  -0.0669833589   0.2057870558   0.0000000000   0.0000000000   0.0000000000   1.0000000000   0.0040000000   0.0000000000
   0.6011725750   0.2066461389   0.0000000000   0.0000000000   0.0000000000   1.0000000000   0.0040000000   0.0000000000
  -0.4906157193   0.2112079401   0.0000000000   0.0000000000   0.0000000000   1.0000000000   0.0040000000   0.0000000000
  -0.7570370061   0.2114208962   0.0000000000   0.0000000000   0.0000000000   1.0000000000   0.0042000000   0.0000000000
   0.1775403009   0.2120667093   0.0000000000   0.0000000000   0.0000000000   1.0000000000   0.0040000000   0.0000000000
   0.9424465844   0.2123770592   0.0000000000   0.0000000000   0.0000000000   1.0000000000   0.0049000000   0.0000000000
  -0.2460920595   0.2174875937   0.0000000000   0.0000000000   0.0000000000   1.0000000000   0.0040000000   0.0000000000
   0.4220639607   0.2183463629   0.0000000000   0.0000000000   0.0000000000   1.0000000000   0.0040000000   0.0000000000
  -0.9401193088   0.2224528378   0.0000000000   0.0000000000   0.0000000000   1.0000000000   0.0045000000   0.0000000000
   0.8552920017   0.2228708308   0.0000000000   0.0000000000   0.0000000000   1.0000000000   0.0049000000   0.0000000000
  -0.0015683997   0.2237672472   0.0000000000   0.0000000000   0.0000000000   1.0000000000   0.0040000000   0.0000000000
   0.6665875311   0.2246263414   0.0000000000   0.0000000000   0.0000000000   1.0000000000   0.0040000000   0.0000000000
  -0.6839256694   0.2283800807   0.0000000000   0.0000000000   0.0000000000   1.0000000000   0.0043000000   0.0000000000
  -0.4252007601   0.2291881316   0.0000000000   0.0000000000   0.0000000000   1.0000000000   0.0040000000   0.0000000000
   0.2429552601   0.2300469008   0.0000000000   0.0000000000   0.0000000000   1.0000000000   0.0040000000   0.0000000000
  -0.1806771003   0.2354677851   0.0000000000   0.0000000000   0.0000000000   1.0000000000   0.0040000000   0.0000000000
   0.4874793496   0.2363269896   0.0000000000   0.0000000000   0.0000000000   1.0000000000   0.0040000000   0.0000000000
  -0.6043094607   0.2408886694   0.0000000000   0.0000000000   0.0000000000   1.0000000000   0.0042000000   0.0000000000
   0.0638465595   0.2417474387   0.0000000000   0.0000000000   0.0000000000   1.0000000000   0.0040000000   0.0000000000
  -0.8751799509   0.2420814897   0.0000000000   0.0000000000   0.0000000000   1.0000000000   0.0041000000   0.0000000000
   0.7320025987   0.2426061389   0.0000000000   0.0000000000   0.0000000000   1.0000000000   0.0040000000   0.0000000000
  -0.3597858009   0.2471683230   0.0000000000   0.0000000000   0.0000000000   1.0000000000   0.0040000000   0.0000000000
   0.3083702193   0.2480270922   0.0000000000   0.0000000000   0.0000000000   1.0000000000   0.0040000000   0.0000000000
  -0.1152621411   0.2534479765   0.0000000000   0.0000000000   0.0000000000   1.0000000000   0.0040000000   0.0000000000
   0.5528942225   0.2543074948   0.0000000000   0.0000000000   0.0000000000   1.0000000000   0.0040000000   0.0000000000
  -0.5388945015   0.2588688609   0.0000000000   0.0000000000   0.0000000000   1.0000000000   0.0040000000   0.0000000000
   0.1292615187   0.2597276301   0.0000000000   0.0000000000   0.0000000000   1.0000000000   0.0040000000   0.0000000000
  -0.8045844643   0.2598114261   0.0000000000   0.0000000000   0.0000000000   1.0000000000   0.0042000000   0.0000000000
   0.7982846550   0.2603538284   0.0000000000   0.0000000000   0.0000000000   1.0000000000   0.0044000000   0.0000000000
  -0.2943708417   0.2651485144   0.0000000000   0.0000000000   0.0000000000   1.0000000000   0.0040000000   0.0000000000
   0.3737851785   0.2660072836   0.0000000000   0.0000000000   0.0000000000   1.0000000000   0.0040000000   0.0000000000
  -0.0498471819   0.2714281680   0.0000000000   0.0000000000   0.0000000000   1.0000000000   0.0040000000   0.0000000000
   0.6183092079   0.2722877270   0.0000000000   0.0000000000   0.0000000000   1.0000000000   0.0040000000   0.0000000000
  -0.7332607405   0.2749590215   0.0000000000   0.0000000000   0.0000000000   1.0000000000   0.0043000000   0.0000000000
  -0.4734795423   0.2768490523   0.0000000000   0.0000000000   0.0000000000   1.0000000000   0.0040000000   0.0000000000
   0.1946764779   0.2777078215   0.0000000000   0.0000000000   0.0000000000   1.0000000000   0.0040000000   0.0000000000
   0.9252182907   0.2779940544   0.0000000000   0.0000000000   0.0000000000   1.0000000000   0.0046000000   0.0000000000
  -0.2289558825   0.2831287059   0.0000000000   0.0000000000   0.0000000000   1.0000000000   0.0040000000   0.0000000000
   0.4392001377   0.2839874751   0.0000000000   0.0000000000   0.0000000000   1.0000000000   0.0040000000   0.0000000000
  -0.6525882428   0.2885495902   0.0000000000   0.0000000000   0.0000000000   1.0000000000   0.0042000000   0.0000000000
   0.0155677773   0.2894083594   0.0000000000   0.0000000000   0.0000000000   1.0000000000   0.0040000000   0.0000000000
   0.6837244908   0.2902677668   0.0000000000   0.0000000000   0.0000000000   1.0000000000   0.0040000000   0.0000000000
   0.8586841106   0.2912457356   0.0000000000   0.0000000000   0.0000000000   1.0000000000   0.0043000000   0.0000000000
  -0.9207722047   0.2923288301   0.0000000000   0.0000000000   0.0000000000   1.0000000000   0.0045000000   0.0000000000
  -0.4080645830   0.2948292437   0.0000000000   0.0000000000   0.0000000000   1.0000000000   0.0040000000   0.0000000000
   0.2600914371   0.2956880130   0.0000000000   0.0000000000   0.0000000000   1.0000000000   0.0040000000   0.0000000000
  -0.1635409232   0.3011088973   0.0000000000   0.0000000000   0.0000000000   1.0000000000   0.0040000000   0.0000000000
   0.5046148544   0.3019685491   0.0000000000   0.0000000000   0.0000000000   1.0000000000   0.0040000000   0.0000000000
  -0.8538280614   0.3064748200   0.0000000000   0.0000000000   0.0000000000   1.0000000000   0.0041000000   0.0000000000
  -0.5871732836   0.3065297816   0.0000000000   0.0000000000   0.0000000000   1.0000000000   0.0040000000   0.0000000000
   0.0809827366   0.3073885508   0.0000000000   0.0000000000   0.0000000000   1.0000000000   0.0040000000   0.0000000000
   0.7500058728   0.3080147491   0.0000000000   0.0000000000   0.0000000000   1.0000000000   0.0045000000   0.0000000000
  -0.3426496238   0.3128094352   0.0000000000   0.0000000000   0.0000000000   1.0000000000   0.0040000000   0.0000000000
   0.3255063964   0.3136682044   0.0000000000   0.0000000000   0.0000000000   1.0000000000   0.0040000000   0.0000000000
  -0.0981259640   0.3190890887   0.0000000000   0.0000000000   0.0000000000   1.0000000000   0.0040000000   0.0000000000
   0.5700298078   0.3199487615   0.0000000000   0.0000000000   0.0000000000   1.0000000000   0.0040000000   0.0000000000
  -0.7808081987   0.3233495515   0.0000000000   0.0000000000   0.0000000000   1.0000000000   0.0043000000   0.0000000000
  -0.5217583244   0.3245099731   0.0000000000   0.0000000000   0.0000000000   1.0000000000   0.0040000000   0.0000000000
   0.1463976958   0.3253687423   0.0000000000   0.0000000000   0.0000000000   1.0000000000   0.0040000000   0.0000000000
  -0.2772346646   0.3307896266   0.0000000000   0.0000000000   0.0000000000   1.0000000000   0.0040000000   0.0000000000
   0.3909213556   0.3316483958   0.0000000000   0.0000000000   0.0000000000   1.0000000000   0.0040000000   0.0000000000
  -0.7019155497   0.3351244865   0.0000000000   0.0000000000   0.0000000000   1.0000000000   0.0042000000   0.0000000000
  -0.0327110048   0.3370692802   0.0000000000   0.0000000000   0.0000000000   1.0000000000   0.0040000000   0.0000000000
   0.6354447529   0.3379290042   0.0000000000   0.0000000000   0.0000000000   1.0000000000   0.0040000000   0.0000000000
   0.9034274931   0.3422401852   0.0000000000   0.0000000000   0.0000000000   1.0000000000   0.0044000000   0.0000000000
  -0.4563433652   0.3424901645   0.0000000000   0.0000000000   0.0000000000   1.0000000000   0.0040000000   0.0000000000
   0.2118126550   0.3433489337   0.0000000000   0.0000000000   0.0000000000   1.0000000000   0.0040000000   0.0000000000
  -0.2118197054   0.3487698180   0.0000000000   0.0000000000   0.0000000000   1.0000000000   0.0040000000   0.0000000000
   0.4565195042   0.3498145673   0.0000000000   0.0000000000   0.0000000000   1.0000000000   0.0040000000   0.0000000000
   0.8318108396   0.3537973671   0.0000000000   0.0000000000   0.0000000000   1.0000000000   0.0047000000   0.0000000000
  -0.6354520658   0.3541907024   0.0000000000   0.0000000000   0.0000000000   1.0000000000   0.0040000000   0.0000000000
   0.0327039544   0.3550494716   0.0000000000   0.0000000000   0.0000000000   1.0000000000   0.0040000000   0.0000000000
   0.7008596962   0.3559092536   0.0000000000   0.0000000000   0.0000000000   1.0000000000   0.0040000000   0.0000000000
  -0.8969655592   0.3588347326   0.0000000000   0.0000000000   0.0000000000   1.0000000000   0.0046000000   0.0000000000
  -0.3909284060   0.3604703559   0.0000000000   0.0000000000   0.0000000000   1.0000000000   0.0040000000   0.0000000000
   0.2772276142   0.3613291251   0.0000000000   0.0000000000   0.0000000000   1.0000000000   0.0040000000   0.0000000000
  -0.1464047462   0.3667500095   0.0000000000   0.0000000000   0.0000000000   1.0000000000   0.0040000000   0.0000000000
   0.5219357366   0.3677960654   0.0000000000   0.0000000000   0.0000000000   1.0000000000   0.0040000000   0.0000000000
  -0.8300517958   0.3700129453   0.0000000000   0.0000000000   0.0000000000   1.0000000000   0.0042000000   0.0000000000
  -0.5700371066   0.3721708938   0.0000000000   0.0000000000   0.0000000000   1.0000000000   0.0040000000   0.0000000000
   0.0981189136   0.3730296630   0.0000000000   0.0000000000   0.0000000000   1.0000000000   0.0040000000   0.0000000000
   0.7662785591   0.3738752369   0.0000000000   0.0000000000   0.0000000000   1.0000000000   0.0043000000   0.0000000000
  -0.3255134468   0.3784505474   0.0000000000   0.0000000000   0.0000000000   1.0000000000   0.0040000000   0.0000000000
   0.3426425734   0.3793093166   0.0000000000   0.0000000000   0.0000000000   1.0000000000   0.0040000000   0.0000000000
  -0.7491356479   0.3838345112   0.0000000000   0.0000000000   0.0000000000   1.0000000000   0.0042000000   0.0000000000
  -0.0809897870   0.3847302009   0.0000000000   0.0000000000   0.0000000000   1.0000000000   0.0040000000   0.0000000000
   0.5873615109   0.3857871907   0.0000000000   0.0000000000   0.0000000000   1.0000000000   0.0040000000   0.0000000000
  -0.5046221474   0.3901510852   0.0000000000   0.0000000000   0.0000000000   1.0000000000   0.0040000000   0.0000000000
   0.1635338728   0.3910098545   0.0000000000   0.0000000000   0.0000000000   1.0000000000   0.0040000000   0.0000000000
  -0.2600984876   0.3964307388   0.0000000000   0.0000000000   0.0000000000   1.0000000000   0.0040000000   0.0000000000
   0.4080577668   0.3972894469   0.0000000000   0.0000000000   0.0000000000   1.0000000000   0.0040000000   0.0000000000
  -0.6837308479   0.4018516231   0.0000000000   0.0000000000   0.0000000000   1.0000000000   0.0040000000   0.0000000000
  -0.0155748278   0.4027103923   0.0000000000   0.0000000000   0.0000000000   1.0000000000   0.0040000000   0.0000000000
   0.6527764897   0.4037674758   0.0000000000   0.0000000000   0.0000000000   1.0000000000   0.0043000000   0.0000000000
   0.8771816482   0.4047986362   0.0000000000   0.0000000000   0.0000000000   1.0000000000   0.0049000000   0.0000000000
  -0.4392071881   0.4081312767   0.0000000000   0.0000000000   0.0000000000   1.0000000000   0.0040000000   0.0000000000
   0.2289488320   0.4089900459   0.0000000000   0.0000000000   0.0000000000   1.0000000000   0.0040000000   0.0000000000
  -0.1946835283   0.4144109302   0.0000000000   0.0000000000   0.0000000000   1.0000000000   0.0040000000   0.0000000000
   0.4736569369   0.4154569684   0.0000000000   0.0000000000   0.0000000000   1.0000000000   0.0040000000   0.0000000000
  -0.6183158887   0.4198318146   0.0000000000   0.0000000000   0.0000000000   1.0000000000   0.0040000000   0.0000000000
   0.0498401315   0.4206905838   0.0000000000   0.0000000000   0.0000000000   1.0000000000   0.0040000000   0.0000000000
   0.7181953696   0.4217338019   0.0000000000   0.0000000000   0.0000000000   1.0000000000   0.0044000000   0.0000000000
   0.8120891151   0.4239131938   0.0000000000   0.0000000000   0.0000000000   1.0000000000   0.0044000000   0.0000000000
  -0.3737922289   0.4261114681   0.0000000000   0.0000000000   0.0000000000   1.0000000000   0.0040000000   0.0000000000
   0.2943637913   0.4269702373   0.0000000000   0.0000000000   0.0000000000   1.0000000000   0.0040000000   0.0000000000
  -0.8664670332   0.4272522208   0.0000000000   0.0000000000   0.0000000000   1.0000000000   0.0045000000   0.0000000000
  -0.7986887478   0.4301691037   0.0000000000   0.0000000000   0.0000000000   1.0000000000   0.0044000000   0.0000000000
  -0.1292685691   0.4323911217   0.0000000000   0.0000000000   0.0000000000   1.0000000000   0.0040000000   0.0000000000
   0.5390719720   0.4334372127   0.0000000000   0.0000000000   0.0000000000   1.0000000000   0.0040000000   0.0000000000
  -0.5529009295   0.4378120060   0.0000000000   0.0000000000   0.0000000000   1.0000000000   0.0040000000   0.0000000000
   0.1152550907   0.4386707752   0.0000000000   0.0000000000   0.0000000000   1.0000000000   0.0040000000   0.0000000000
  -0.3083772697   0.4440916595   0.0000000000   0.0000000000   0.0000000000   1.0000000000   0.0040000000   0.0000000000
   0.3597789792   0.4449503691   0.0000000000   0.0000000000   0.0000000000   1.0000000000   0.0040000000   0.0000000000
  -0.7331278054   0.4498146724   0.0000000000   0.0000000000   0.0000000000   1.0000000000   0.0045000000   0.0000000000
  -0.0638536099   0.4503713131   0.0000000000   0.0000000000   0.0000000000   1.0000000000   0.0040000000   0.0000000000
   0.6044977099   0.4514283989   0.0000000000   0.0000000000   0.0000000000   1.0000000000   0.0043000000   0.0000000000
  -0.4874859700   0.4557921977   0.0000000000   0.0000000000   0.0000000000   1.0000000000   0.0040000000   0.0000000000
   0.1806700499   0.4566509666   0.0000000000   0.0000000000   0.0000000000   1.0000000000   0.0040000000   0.0000000000
  -0.2429623105   0.4620718510   0.0000000000   0.0000000000   0.0000000000   1.0000000000   0.0040000000   0.0000000000
   0.4251939384   0.4629305605   0.0000000000   0.0000000000   0.0000000000   1.0000000000   0.0040000000   0.0000000000
  -0.6665946709   0.4674927353   0.0000000000   0.0000000000   0.0000000000   1.0000000000   0.0040000000   0.0000000000
   0.0015613493   0.4683515045   0.0000000000   0.0000000000   0.0000000000   1.0000000000   0.0040000000   0.0000000000
   0.7639272673   0.4718437284   0.0000000000   0.0000000000   0.0000000000   1.0000000000   0.0046000000   0.0000000000
  -0.4220710107   0.4737723892   0.0000000000   0.0000000000   0.0000000000   1.0000000000   0.0040000000   0.0000000000
   0.2460850091   0.4746311581   0.0000000000   0.0000000000   0.0000000000   1.0000000000   0.0040000000   0.0000000000
  -0.1775473513   0.4800520424   0.0000000000   0.0000000000   0.0000000000   1.0000000000   0.0040000000   0.0000000000
   0.4907932681   0.4810982128   0.0000000000   0.0000000000   0.0000000000   1.0000000000   0.0040000000   0.0000000000
   0.6819213885   0.4836595852   0.0000000000   0.0000000000   0.0000000000   1.0000000000   0.0049000000   0.0000000000
  -0.6011797117   0.4854729267   0.0000000000   0.0000000000   0.0000000000   1.0000000000   0.0040000000   0.0000000000
   0.0669763085   0.4863316960   0.0000000000   0.0000000000   0.0000000000   1.0000000000   0.0040000000   0.0000000000
   0.8336216744   0.4882463351   0.0000000000   0.0000000000   0.0000000000   1.0000000000   0.0050000000   0.0000000000
  -0.8335507333   0.4883674382   0.0000000000   0.0000000000   0.0000000000   1.0000000000   0.0049000000   0.0000000000
  -0.3566560515   0.4917525807   0.0000000000   0.0000000000   0.0000000000   1.0000000000   0.0040000000   0.0000000000
   0.3115001960   0.4926112901   0.0000000000   0.0000000000   0.0000000000   1.0000000000   0.0040000000   0.0000000000
  -0.1121323921   0.4980322338   0.0000000000   0.0000000000   0.0000000000   1.0000000000   0.0040000000   0.0000000000
   0.5562082125   0.4990784631   0.0000000000   0.0000000000   0.0000000000   1.0000000000   0.0042000000   0.0000000000
  -0.5357647525   0.5034531182   0.0000000000   0.0000000000   0.0000000000   1.0000000000   0.0040000000   0.0000000000
   0.1323912677   0.5043118874   0.0000000000   0.0000000000   0.0000000000   1.0000000000   0.0040000000   0.0000000000
  -0.2912410922   0.5097327721   0.0000000000   0.0000000000   0.0000000000   1.0000000000   0.0040000000   0.0000000000
   0.3769151562   0.5105914812   0.0000000000   0.0000000000   0.0000000000   1.0000000000   0.0040000000   0.0000000000
  -0.7148734530   0.5151536561   0.0000000000   0.0000000000   0.0000000000   1.0000000000   0.0044000000   0.0000000000
  -0.0467174328   0.5160124253   0.0000000000   0.0000000000   0.0000000000   1.0000000000   0.0040000000   0.0000000000
   0.6216157403   0.5170858402   0.0000000000   0.0000000000   0.0000000000   1.0000000000   0.0043000000   0.0000000000
  -0.4703497929   0.5214333100   0.0000000000   0.0000000000   0.0000000000   1.0000000000   0.0040000000   0.0000000000
   0.1978062270   0.5222920788   0.0000000000   0.0000000000   0.0000000000   1.0000000000   0.0040000000   0.0000000000
  -0.2258277556   0.5277188656   0.0000000000   0.0000000000   0.0000000000   1.0000000000   0.0040000000   0.0000000000
   0.4423301351   0.5285716676   0.0000000000   0.0000000000   0.0000000000   1.0000000000   0.0040000000   0.0000000000
  -0.7808243010   0.5310561662   0.0000000000   0.0000000000   0.0000000000   1.0000000000   0.0057000000   0.0000000000
   0.7310030976   0.5311598708   0.0000000000   0.0000000000   0.0000000000   1.0000000000   0.0044000000   0.0000000000
  -0.6494584938   0.5331338475   0.0000000000   0.0000000000   0.0000000000   1.0000000000   0.0043000000   0.0000000000
   0.0186975264   0.5339926167   0.0000000000   0.0000000000   0.0000000000   1.0000000000   0.0040000000   0.0000000000
  -0.4049348336   0.5394135015   0.0000000000   0.0000000000   0.0000000000   1.0000000000   0.0040000000   0.0000000000
   0.2632213775   0.5402722203   0.0000000000   0.0000000000   0.0000000000   1.0000000000   0.0040000000   0.0000000000
   0.7973012741   0.5455458350   0.0000000000   0.0000000000   0.0000000000   1.0000000000   0.0045000000   0.0000000000
  -0.1604111743   0.5456931546   0.0000000000   0.0000000000   0.0000000000   1.0000000000   0.0040000000   0.0000000000
   0.5079295457   0.5467395006   0.0000000000   0.0000000000   0.0000000000   1.0000000000   0.0042000000   0.0000000000
  -0.5840435346   0.5511140389   0.0000000000   0.0000000000   0.0000000000   1.0000000000   0.0043000000   0.0000000000
   0.0841124856   0.5519728082   0.0000000000   0.0000000000   0.0000000000   1.0000000000   0.0040000000   0.0000000000
  -0.3395198744   0.5573936929   0.0000000000   0.0000000000   0.0000000000   1.0000000000   0.0040000000   0.0000000000
   0.3286363367   0.5582524118   0.0000000000   0.0000000000   0.0000000000   1.0000000000   0.0040000000   0.0000000000
   0.6712668111   0.5633154340   0.0000000000   0.0000000000   0.0000000000   1.0000000000   0.0051000000   0.0000000000
  -0.0949962151   0.5636733460   0.0000000000   0.0000000000   0.0000000000   1.0000000000   0.0040000000   0.0000000000
  -0.5186285754   0.5690942304   0.0000000000   0.0000000000   0.0000000000   1.0000000000   0.0040000000   0.0000000000
   0.1495274448   0.5699529996   0.0000000000   0.0000000000   0.0000000000   1.0000000000   0.0040000000   0.0000000000
  -0.2741065377   0.5753797864   0.0000000000   0.0000000000   0.0000000000   1.0000000000   0.0040000000   0.0000000000
   0.3940512959   0.5762326032   0.0000000000   0.0000000000   0.0000000000   1.0000000000   0.0040000000   0.0000000000
   0.5830408903   0.5763989929   0.0000000000   0.0000000000   0.0000000000   1.0000000000   0.0049000000   0.0000000000
  -0.0295812558   0.5816535375   0.0000000000   0.0000000000   0.0000000000   1.0000000000   0.0040000000   0.0000000000
  -0.6935709732   0.5846750285   0.0000000000   0.0000000000   0.0000000000   1.0000000000   0.0043000000   0.0000000000
  -0.4532136158   0.5870744222   0.0000000000   0.0000000000   0.0000000000   1.0000000000   0.0040000000   0.0000000000
   0.2149424040   0.5879331910   0.0000000000   0.0000000000   0.0000000000   1.0000000000   0.0040000000   0.0000000000
  -0.2086915785   0.5933599778   0.0000000000   0.0000000000   0.0000000000   1.0000000000   0.0040000000   0.0000000000
   0.4594662551   0.5942127946   0.0000000000   0.0000000000   0.0000000000   1.0000000000   0.0040000000   0.0000000000
  -0.7604968971   0.5957802021   0.0000000000   0.0000000000   0.0000000000   1.0000000000   0.0048000000   0.0000000000
   0.0358337034   0.5996337289   0.0000000000   0.0000000000   0.0000000000   1.0000000000   0.0040000000   0.0000000000
   0.7570491636   0.6001550996   0.0000000000   0.0000000000   0.0000000000   1.0000000000   0.0049000000   0.0000000000
  -0.3877986564   0.6050546138   0.0000000000   0.0000000000   0.0000000000   1.0000000000   0.0040000000   0.0000000000
   0.2803573632   0.6059133825   0.0000000000   0.0000000000   0.0000000000   1.0000000000   0.0040000000   0.0000000000
  -0.1432749972   0.6113342668   0.0000000000   0.0000000000   0.0000000000   1.0000000000   0.0040000000   0.0000000000
   0.5250655612   0.6123806673   0.0000000000   0.0000000000   0.0000000000   1.0000000000   0.0042000000   0.0000000000
  -0.5669073575   0.6167551511   0.0000000000   0.0000000000   0.0000000000   1.0000000000   0.0045000000   0.0000000000
   0.1012486626   0.6176139203   0.0000000000   0.0000000000   0.0000000000   1.0000000000   0.0040000000   0.0000000000
  -0.6347275345   0.6184367508   0.0000000000   0.0000000000   0.0000000000   1.0000000000   0.0049000000   0.0000000000
  -0.3223856062   0.6230417489   0.0000000000   0.0000000000   0.0000000000   1.0000000000   0.0040000000   0.0000000000
   0.3457723224   0.6238935739   0.0000000000   0.0000000000   0.0000000000   1.0000000000   0.0040000000   0.0000000000
   0.6496765762   0.6276292423   0.0000000000   0.0000000000   0.0000000000   1.0000000000   0.0048000000   0.0000000000
  -0.0778600380   0.6293144582   0.0000000000   0.0000000000   0.0000000000   1.0000000000   0.0040000000   0.0000000000
  -0.5014923983   0.6347353425   0.0000000000   0.0000000000   0.0000000000   1.0000000000   0.0045000000   0.0000000000
   0.1666636219   0.6355941118   0.0000000000   0.0000000000   0.0000000000   1.0000000000   0.0040000000   0.0000000000
  -0.2569703607   0.6410208986   0.0000000000   0.0000000000   0.0000000000   1.0000000000   0.0040000000   0.0000000000
   0.4111872817   0.6418737653   0.0000000000   0.0000000000   0.0000000000   1.0000000000   0.0042000000   0.0000000000
   0.5842451903   0.6455495635   0.0000000000   0.0000000000   0.0000000000   1.0000000000   0.0044000000   0.0000000000
  -0.0124450787   0.6472946497   0.0000000000   0.0000000000   0.0000000000   1.0000000000   0.0040000000   0.0000000000
  -0.7158316585   0.6487631795   0.0000000000   0.0000000000   0.0000000000   1.0000000000   0.0047000000   0.0000000000
   0.7130638372   0.6518048356   0.0000000000   0.0000000000   0.0000000000   1.0000000000   0.0047000000   0.0000000000
  -0.4360774386   0.6527155345   0.0000000000   0.0000000000   0.0000000000   1.0000000000   0.0040000000   0.0000000000
   0.2320785811   0.6535743032   0.0000000000   0.0000000000   0.0000000000   1.0000000000   0.0040000000   0.0000000000
  -0.1915554014   0.6590010900   0.0000000000   0.0000000000   0.0000000000   1.0000000000   0.0040000000   0.0000000000
   0.4766022409   0.6598539568   0.0000000000   0.0000000000   0.0000000000   1.0000000000   0.0043000000   0.0000000000
   0.0529698805   0.6652748411   0.0000000000   0.0000000000   0.0000000000   1.0000000000   0.0040000000   0.0000000000
  -0.3706643883   0.6707026697   0.0000000000   0.0000000000   0.0000000000   1.0000000000   0.0043000000   0.0000000000
   0.2974935403   0.6715544946   0.0000000000   0.0000000000   0.0000000000   1.0000000000   0.0040000000   0.0000000000
  -0.1261388201   0.6769753790   0.0000000000   0.0000000000   0.0000000000   1.0000000000   0.0040000000   0.0000000000
  -0.6031847107   0.6784988391   0.0000000000   0.0000000000   0.0000000000   1.0000000000   0.0044000000   0.0000000000
   0.1183848397   0.6832550325   0.0000000000   0.0000000000   0.0000000000   1.0000000000   0.0040000000   0.0000000000
  -0.3052494622   0.6886829813   0.0000000000   0.0000000000   0.0000000000   1.0000000000   0.0043000000   0.0000000000
   0.3629084995   0.6895346861   0.0000000000   0.0000000000   0.0000000000   1.0000000000   0.0042000000   0.0000000000
   0.5356376074   0.6932789425   0.0000000000   0.0000000000   0.0000000000   1.0000000000   0.0046000000   0.0000000000
  -0.0607238609   0.6949555704   0.0000000000   0.0000000000   0.0000000000   1.0000000000   0.0040000000   0.0000000000
  -0.6685359218   0.6974011394   0.0000000000   0.0000000000   0.0000000000   1.0000000000   0.0047000000   0.0000000000
   0.6655621985   0.7002403442   0.0000000000   0.0000000000   0.0000000000   1.0000000000   0.0051000000   0.0000000000
  -0.4843562213   0.7003764547   0.0000000000   0.0000000000   0.0000000000   1.0000000000   0.0043000000   0.0000000000
   0.1837997989   0.7012352240   0.0000000000   0.0000000000   0.0000000000   1.0000000000   0.0040000000   0.0000000000
  -0.2398341836   0.7066620108   0.0000000000   0.0000000000   0.0000000000   1.0000000000   0.0042000000   0.0000000000
   0.0046910983   0.7129357618   0.0000000000   0.0000000000   0.0000000000   1.0000000000   0.0040000000   0.0000000000
   0.4353116406   0.7158257001   0.0000000000   0.0000000000   0.0000000000   1.0000000000   0.0046000000   0.0000000000
   0.5995704782   0.7159723823   0.0000000000   0.0000000000   0.0000000000   1.0000000000   0.0052000000   0.0000000000
  -0.4189423400   0.7183644317   0.0000000000   0.0000000000   0.0000000000   1.0000000000   0.0044000000   0.0000000000
   0.2492147581   0.7192154154   0.0000000000   0.0000000000   0.0000000000   1.0000000000   0.0040000000   0.0000000000
  -0.5493592532   0.7197932006   0.0000000000   0.0000000000   0.0000000000   1.0000000000   0.0047000000   0.0000000000
  -0.1744192243   0.7246422022   0.0000000000   0.0000000000   0.0000000000   1.0000000000   0.0042000000   0.0000000000
   0.0701060576   0.7309159533   0.0000000000   0.0000000000   0.0000000000   1.0000000000   0.0040000000   0.0000000000
   0.3146297174   0.7371956068   0.0000000000   0.0000000000   0.0000000000   1.0000000000   0.0040000000   0.0000000000
  -0.1090026430   0.7426164912   0.0000000000   0.0000000000   0.0000000000   1.0000000000   0.0040000000   0.0000000000
  -0.6145960583   0.7453732387   0.0000000000   0.0000000000   0.0000000000   1.0000000000   0.0045000000   0.0000000000
   0.1355210168   0.7488961447   0.0000000000   0.0000000000   0.0000000000   1.0000000000   0.0040000000   0.0000000000
   0.4995649388   0.7507347233   0.0000000000   0.0000000000   0.0000000000   1.0000000000   0.0046000000   0.0000000000
  -0.2881121079   0.7543238005   0.0000000000   0.0000000000   0.0000000000   1.0000000000   0.0043000000   0.0000000000
   0.3800446766   0.7551757983   0.0000000000   0.0000000000   0.0000000000   1.0000000000   0.0042000000   0.0000000000
  -0.3569343377   0.7562333580   0.0000000000   0.0000000000   0.0000000000   1.0000000000   0.0049000000   0.0000000000
  -0.0435876838   0.7605966826   0.0000000000   0.0000000000   0.0000000000   1.0000000000   0.0042000000   0.0000000000
   0.2009359760   0.7668763361   0.0000000000   0.0000000000   0.0000000000   1.0000000000   0.0040000000   0.0000000000
  -0.4957675688   0.7672508543   0.0000000000   0.0000000000   0.0000000000   1.0000000000   0.0043000000   0.0000000000
   0.5724954170   0.7781764435   0.0000000000   0.0000000000   0.0000000000   1.0000000000   0.0052000000   0.0000000000
   0.0218272754   0.7785768740   0.0000000000   0.0000000000   0.0000000000   1.0000000000   0.0042000000   0.0000000000
   0.2663509352   0.7848565276   0.0000000000   0.0000000000   0.0000000000   1.0000000000   0.0040000000   0.0000000000
   0.4409943037   0.7849675274   0.0000000000   0.0000000000   0.0000000000   1.0000000000   0.0043000000   0.0000000000
  -0.4303547024   0.7852386581   0.0000000000   0.0000000000   0.0000000000   1.0000000000   0.0046000000   0.0000000000
  -0.5607706007   0.7866676002   0.0000000000   0.0000000000   0.0000000000   1.0000000000   0.0048000000   0.0000000000
  -0.2252219724   0.7879263091   0.0000000000   0.0000000000   0.0000000000   1.0000000000   0.0050000000   0.0000000000
  -0.1572830473   0.7902833144   0.0000000000   0.0000000000   0.0000000000   1.0000000000   0.0042000000   0.0000000000
   0.0872422346   0.7965570655   0.0000000000   0.0000000000   0.0000000000   1.0000000000   0.0040000000   0.0000000000
   0.3317658944   0.8028367190   0.0000000000   0.0000000000   0.0000000000   1.0000000000   0.0044000000   0.0000000000
  -0.0918664660   0.8082576033   0.0000000000   0.0000000000   0.0000000000   1.0000000000   0.0043000000   0.0000000000
   0.1526571938   0.8145372569   0.0000000000   0.0000000000   0.0000000000   1.0000000000   0.0040000000   0.0000000000
   0.5164716445   0.8164353129   0.0000000000   0.0000000000   0.0000000000   1.0000000000   0.0045000000   0.0000000000
  -0.3067379439   0.8195578591   0.0000000000   0.0000000000   0.0000000000   1.0000000000   0.0051000000   0.0000000000
  -0.3744538072   0.8236768434   0.0000000000   0.0000000000   0.0000000000   1.0000000000   0.0044000000   0.0000000000
   0.2180721530   0.8325174483   0.0000000000   0.0000000000   0.0000000000   1.0000000000   0.0041000000   0.0000000000
   0.3922539268   0.8335548262   0.0000000000   0.0000000000   0.0000000000   1.0000000000   0.0046000000   0.0000000000
  -0.4867588908   0.8344910796   0.0000000000   0.0000000000   0.0000000000   1.0000000000   0.0049000000   0.0000000000
  -0.0285229877   0.8372908971   0.0000000000   0.0000000000   0.0000000000   1.0000000000   0.0046000000   0.0000000000
   0.0389634525   0.8442179862   0.0000000000   0.0000000000   0.0000000000   1.0000000000   0.0042000000   0.0000000000
  -0.1919480279   0.8485992066   0.0000000000   0.0000000000   0.0000000000   1.0000000000   0.0044000000   0.0000000000
   0.4579010094   0.8506681170   0.0000000000   0.0000000000   0.0000000000   1.0000000000   0.0050000000   0.0000000000
   0.2847162040   0.8518958083   0.0000000000   0.0000000000   0.0000000000   1.0000000000   0.0045000000   0.0000000000
   0.1043784117   0.8621981776   0.0000000000   0.0000000000   0.0000000000   1.0000000000   0.0043000000   0.0000000000
  -0.2574678847   0.8661933117   0.0000000000   0.0000000000   0.0000000000   1.0000000000   0.0048000000   0.0000000000
  -0.1265293500   0.8665747419   0.0000000000   0.0000000000   0.0000000000   1.0000000000   0.0046000000   0.0000000000
  -0.4269943679   0.8665941319   0.0000000000   0.0000000000   0.0000000000   1.0000000000   0.0045000000   0.0000000000
   0.1691093702   0.8825035264   0.0000000000   0.0000000000   0.0000000000   1.0000000000   0.0045000000   0.0000000000
  -0.3651242192   0.8944237722   0.0000000000   0.0000000000   0.0000000000   1.0000000000   0.0048000000   0.0000000000
   0.3635964648   0.8950459153   0.0000000000   0.0000000000   0.0000000000   1.0000000000   0.0055000000   0.0000000000
   0.2351135443   0.8981832321   0.0000000000   0.0000000000   0.0000000000   1.0000000000   0.0046000000   0.0000000000
  -0.0670405061   0.8991858078   0.0000000000   0.0000000000   0.0000000000   1.0000000000   0.0046000000   0.0000000000
   0.0007913501   0.9003009139   0.0000000000   0.0000000000   0.0000000000   1.0000000000   0.0042000000   0.0000000000
  -0.1712004121   0.9176325560   0.0000000000   0.0000000000   0.0000000000   1.0000000000   0.0052000000   0.0000000000
  -0.3014535434   0.9178427648   0.0000000000   0.0000000000   0.0000000000   1.0000000000   0.0047000000   0.0000000000
   0.2998858940   0.9183561566   0.0000000000   0.0000000000   0.0000000000   1.0000000000   0.0050000000   0.0000000000
   0.0666474091   0.9185788092   0.0000000000   0.0000000000   0.0000000000   1.0000000000   0.0046000000   0.0000000000
  -0.2362963179   0.9367356243   0.0000000000   0.0000000000   0.0000000000   1.0000000000   0.0051000000   0.0000000000
   0.1885324337   0.9475046708   0.0000000000   0.0000000000   0.0000000000   1.0000000000   0.0050000000   0.0000000000
   0.1215719663   0.9583996227   0.0000000000   0.0000000000   0.0000000000   1.0000000000   0.0055000000   0.0000000000
  -0.1173719805   0.9589230407   0.0000000000   0.0000000000   0.0000000000   1.0000000000   0.0052000000   0.0000000000
  -0.0497856309   0.9647958181   0.0000000000   0.0000000000   0.0000000000   1.0000000000   0.0045000000   0.0000000000
   0.0180462253   0.9659109242   0.0000000000   0.0000000000   0.0000000000   1.0000000000   0.0050000000   0.0000000000
